Informe/Scripts Graficos MATLAB/Ensayo Sistema Completo/30V/7 - DC50.RL100 - VS.CSV

Record Length,2.500000e+03,,   0.015971000000,  -2.00000,
Sample Interval,4.000000e-08,,   0.015971040000,   2.00000,
Trigger Point,-3.992750000000e+05,,   0.015971080000,   0.00000,
,,,   0.015971120000,   2.00000,
,,,   0.015971160000,   0.00000,
,,,   0.015971200000,   2.00000,
Source,CH1,,   0.015971240000,   0.00000,
Vertical Units,V,,   0.015971280000,   0.00000,
Vertical Scale,5.000000e+01,,   0.015971320000,   0.00000,
Vertical Offset,0.000000e+00,,   0.015971360000,   0.00000,
Horizontal Units,s,,   0.015971400000,   0.00000,
Horizontal Scale,1.000000e-05,,   0.015971440000,   0.00000,
Pt Fmt,Y,,   0.015971480000,   2.00000,
Yzero,0.000000e+00,,   0.015971520000,   0.00000,
Probe Atten,1.000000e+01,,   0.015971560000,  -2.00000,
Model Number,TBS1102B,,   0.015971600000,   0.00000,
Serial Number,C033696,,   0.015971640000,   0.00000,
Firmware Version,FV:v4.06,,   0.015971680000,   0.00000,
,,,0.015971720000,   0.00000,
,,,0.015971760000,   2.00000,
,,,0.015971800000,   2.00000,
,,,0.015971840000,   2.00000,
,,,0.015971880000,   0.00000,
,,,0.015971920000,   2.00000,
,,,0.015971960000,   0.00000,
,,,0.015972000000,   0.00000,
,,,0.015972040000,   0.00000,
,,,0.015972080000,   0.00000,
,,,0.015972120000,   0.00000,
,,,0.015972160000,   0.00000,
,,,0.015972200000,   0.00000,
,,,0.015972240000,   2.00000,
,,,0.015972280000,   2.00000,
,,,0.015972320000,   0.00000,
,,,0.015972360000,   0.00000,
,,,0.015972400000,   0.00000,
,,,0.015972440000,  -2.00000,
,,,0.015972480000,   2.00000,
,,,0.015972520000,   2.00000,
,,,0.015972560000,  -2.00000,
,,,0.015972600000,   0.00000,
,,,0.015972640000,   0.00000,
,,,0.015972680000,   2.00000,
,,,0.015972720000,   0.00000,
,,,0.015972760000,   0.00000,
,,,0.015972800000,   0.00000,
,,,0.015972840000,   0.00000,
,,,0.015972880000,   0.00000,
,,,0.015972920000,   0.00000,
,,,0.015972960000,   0.00000,
,,,0.015973000000,   2.00000,
,,,0.015973040000,   0.00000,
,,,0.015973080000,  -2.00000,
,,,0.015973120000,   0.00000,
,,,0.015973160000,   0.00000,
,,,0.015973200000,   2.00000,
,,,0.015973240000,   2.00000,
,,,0.015973280000,  -2.00000,
,,,0.015973320000,   0.00000,
,,,0.015973360000,   0.00000,
,,,0.015973400000,   2.00000,
,,,0.015973440000,   0.00000,
,,,0.015973480000,  -2.00000,
,,,0.015973520000,   0.00000,
,,,0.015973560000,   0.00000,
,,,0.015973600000,   0.00000,
,,,0.015973640000,   0.00000,
,,,0.015973680000,   0.00000,
,,,0.015973720000,   0.00000,
,,,0.015973760000,   0.00000,
,,,0.015973800000,   0.00000,
,,,0.015973840000,   0.00000,
,,,0.015973880000,  -2.00000,
,,,0.015973920000,   2.00000,
,,,0.015973960000,   0.00000,
,,,0.015974000000,   0.00000,
,,,0.015974040000,   2.00000,
,,,0.015974080000,   0.00000,
,,,0.015974120000,   0.00000,
,,,0.015974160000,   2.00000,
,,,0.015974200000,   0.00000,
,,,0.015974240000,  -2.00000,
,,,0.015974280000,   0.00000,
,,,0.015974320000,   0.00000,
,,,0.015974360000,   0.00000,
,,,0.015974400000,   0.00000,
,,,0.015974440000,   0.00000,
,,,0.015974480000,   2.00000,
,,,0.015974520000,   0.00000,
,,,0.015974560000,   0.00000,
,,,0.015974600000,   0.00000,
,,,0.015974640000,   2.00000,
,,,0.015974680000,   0.00000,
,,,0.015974720000,   0.00000,
,,,0.015974760000,   0.00000,
,,,0.015974800000,  -2.00000,
,,,0.015974840000,   0.00000,
,,,0.015974880000,   2.00000,
,,,0.015974920000,   0.00000,
,,,0.015974960000,   0.00000,
,,,0.015975000000,   0.00000,
,,,0.015975040000,   0.00000,
,,,0.015975080000,   0.00000,
,,,0.015975120000,   0.00000,
,,,0.015975160000,   2.00000,
,,,0.015975200000,   2.00000,
,,,0.015975240000,  -2.00000,
,,,0.015975280000,   0.00000,
,,,0.015975320000,   0.00000,
,,,0.015975360000,   0.00000,
,,,0.015975400000,  -2.00000,
,,,0.015975440000,   0.00000,
,,,0.015975480000,   0.00000,
,,,0.015975520000,   0.00000,
,,,0.015975560000,  -2.00000,
,,,0.015975600000,   0.00000,
,,,0.015975640000,   2.00000,
,,,0.015975680000,   0.00000,
,,,0.015975720000,   2.00000,
,,,0.015975760000,   0.00000,
,,,0.015975800000,   0.00000,
,,,0.015975840000,  -2.00000,
,,,0.015975880000,   0.00000,
,,,0.015975920000,   2.00000,
,,,0.015975960000,   0.00000,
,,,0.015976000000,   2.00000,
,,,0.015976040000,  -2.00000,
,,,0.015976080000,  -2.00000,
,,,0.015976120000,   0.00000,
,,,0.015976160000,   2.00000,
,,,0.015976200000,   2.00000,
,,,0.015976240000,   0.00000,
,,,0.015976280000,  -2.00000,
,,,0.015976320000,  -2.00000,
,,,0.015976360000,   0.00000,
,,,0.015976400000,   0.00000,
,,,0.015976440000,   0.00000,
,,,0.015976480000,  -2.00000,
,,,0.015976520000,  -2.00000,
,,,0.015976560000,   0.00000,
,,,0.015976600000,  -2.00000,
,,,0.015976640000,   0.00000,
,,,0.015976680000,   0.00000,
,,,0.015976720000,  -2.00000,
,,,0.015976760000,   2.00000,
,,,0.015976800000,   0.00000,
,,,0.015976840000,   0.00000,
,,,0.015976880000,   0.00000,
,,,0.015976920000,   0.00000,
,,,0.015976960000,   0.00000,
,,,0.015977000000,   0.00000,
,,,0.015977040000,   0.00000,
,,,0.015977080000,  -2.00000,
,,,0.015977120000,   0.00000,
,,,0.015977160000,   0.00000,
,,,0.015977200000,  -2.00000,
,,,0.015977240000,   0.00000,
,,,0.015977280000,   0.00000,
,,,0.015977320000,  -2.00000,
,,,0.015977360000,   2.00000,
,,,0.015977400000,  -2.00000,
,,,0.015977440000,  -2.00000,
,,,0.015977480000,   0.00000,
,,,0.015977520000,   0.00000,
,,,0.015977560000,  -2.00000,
,,,0.015977600000,  -2.00000,
,,,0.015977640000,  -2.00000,
,,,0.015977680000,  -2.00000,
,,,0.015977720000, -20.00000,
,,,0.015977760000,-106.00000,
,,,0.015977800000,-128.00000,
,,,0.015977840000,-116.00000,
,,,0.015977880000,-164.00000,
,,,0.015977920000,-168.00000,
,,,0.015977960000,-104.00000,
,,,0.015978000000, -84.00000,
,,,0.015978040000,-126.00000,
,,,0.015978080000,-104.00000,
,,,0.015978120000, -70.00000,
,,,0.015978160000, -72.00000,
,,,0.015978200000, -98.00000,
,,,0.015978240000, -90.00000,
,,,0.015978280000,-100.00000,
,,,0.015978320000,-130.00000,
,,,0.015978360000,-130.00000,
,,,0.015978400000,-100.00000,
,,,0.015978440000, -96.00000,
,,,0.015978480000,-104.00000,
,,,0.015978520000,-110.00000,
,,,0.015978560000,-114.00000,
,,,0.015978600000,-118.00000,
,,,0.015978640000,-102.00000,
,,,0.015978680000, -84.00000,
,,,0.015978720000, -80.00000,
,,,0.015978760000,-102.00000,
,,,0.015978800000,-110.00000,
,,,0.015978840000,-110.00000,
,,,0.015978880000,-110.00000,
,,,0.015978920000,-106.00000,
,,,0.015978960000,-102.00000,
,,,0.015979000000,-108.00000,
,,,0.015979040000,-118.00000,
,,,0.015979080000,-110.00000,
,,,0.015979120000, -96.00000,
,,,0.015979160000, -94.00000,
,,,0.015979200000, -92.00000,
,,,0.015979240000, -96.00000,
,,,0.015979280000,-108.00000,
,,,0.015979320000,-112.00000,
,,,0.015979360000,-106.00000,
,,,0.015979400000,-104.00000,
,,,0.015979440000,-106.00000,
,,,0.015979480000,-112.00000,
,,,0.015979520000,-108.00000,
,,,0.015979560000,-104.00000,
,,,0.015979600000,-100.00000,
,,,0.015979640000, -96.00000,
,,,0.015979680000, -98.00000,
,,,0.015979720000,-102.00000,
,,,0.015979760000,-106.00000,
,,,0.015979800000,-108.00000,
,,,0.015979840000,-104.00000,
,,,0.015979880000,-106.00000,
,,,0.015979920000,-106.00000,
,,,0.015979960000,-108.00000,
,,,0.015980000000,-106.00000,
,,,0.015980040000,-104.00000,
,,,0.015980080000, -98.00000,
,,,0.015980120000, -98.00000,
,,,0.015980160000,-100.00000,
,,,0.015980200000,-102.00000,
,,,0.015980240000,-108.00000,
,,,0.015980280000,-106.00000,
,,,0.015980320000,-104.00000,
,,,0.015980360000,-106.00000,
,,,0.015980400000,-108.00000,
,,,0.015980440000,-106.00000,
,,,0.015980480000,-104.00000,
,,,0.015980520000,-106.00000,
,,,0.015980560000,-100.00000,
,,,0.015980600000, -98.00000,
,,,0.015980640000,-104.00000,
,,,0.015980680000,-104.00000,
,,,0.015980720000,-106.00000,
,,,0.015980760000,-106.00000,
,,,0.015980800000,-106.00000,
,,,0.015980840000,-104.00000,
,,,0.015980880000,-108.00000,
,,,0.015980920000,-104.00000,
,,,0.015980960000,-106.00000,
,,,0.015981000000,-102.00000,
,,,0.015981040000,-100.00000,
,,,0.015981080000,-102.00000,
,,,0.015981120000,-102.00000,
,,,0.015981160000,-106.00000,
,,,0.015981200000,-108.00000,
,,,0.015981240000,-106.00000,
,,,0.015981280000,-104.00000,
,,,0.015981320000,-104.00000,
,,,0.015981360000,-108.00000,
,,,0.015981400000,-104.00000,
,,,0.015981440000,-104.00000,
,,,0.015981480000,-102.00000,
,,,0.015981520000,-102.00000,
,,,0.015981560000,-102.00000,
,,,0.015981600000,-102.00000,
,,,0.015981640000,-102.00000,
,,,0.015981680000,-102.00000,
,,,0.015981720000,-104.00000,
,,,0.015981760000,-104.00000,
,,,0.015981800000,-106.00000,
,,,0.015981840000,-106.00000,
,,,0.015981880000,-106.00000,
,,,0.015981920000,-104.00000,
,,,0.015981960000,-104.00000,
,,,0.015982000000,-102.00000,
,,,0.015982040000,-104.00000,
,,,0.015982080000,-104.00000,
,,,0.015982120000,-104.00000,
,,,0.015982160000,-104.00000,
,,,0.015982200000,-102.00000,
,,,0.015982240000,-104.00000,
,,,0.015982280000,-104.00000,
,,,0.015982320000,-106.00000,
,,,0.015982360000,-104.00000,
,,,0.015982400000,-102.00000,
,,,0.015982440000,-104.00000,
,,,0.015982480000,-104.00000,
,,,0.015982520000,-104.00000,
,,,0.015982560000,-102.00000,
,,,0.015982600000,-104.00000,
,,,0.015982640000,-102.00000,
,,,0.015982680000,-102.00000,
,,,0.015982720000,-102.00000,
,,,0.015982760000,-102.00000,
,,,0.015982800000,-104.00000,
,,,0.015982840000,-104.00000,
,,,0.015982880000,-102.00000,
,,,0.015982920000,-104.00000,
,,,0.015982960000,-104.00000,
,,,0.015983000000,-102.00000,
,,,0.015983040000,-104.00000,
,,,0.015983080000,-106.00000,
,,,0.015983120000,-106.00000,
,,,0.015983160000,-102.00000,
,,,0.015983200000,-106.00000,
,,,0.015983240000,-108.00000,
,,,0.015983280000,-106.00000,
,,,0.015983320000,-104.00000,
,,,0.015983360000,-104.00000,
,,,0.015983400000,-104.00000,
,,,0.015983440000,-104.00000,
,,,0.015983480000,-102.00000,
,,,0.015983520000,-104.00000,
,,,0.015983560000,-104.00000,
,,,0.015983600000,-106.00000,
,,,0.015983640000,-106.00000,
,,,0.015983680000,-104.00000,
,,,0.015983720000,-102.00000,
,,,0.015983760000,-104.00000,
,,,0.015983800000,-104.00000,
,,,0.015983840000,-104.00000,
,,,0.015983880000,-102.00000,
,,,0.015983920000,-102.00000,
,,,0.015983960000,-104.00000,
,,,0.015984000000,-104.00000,
,,,0.015984040000,-102.00000,
,,,0.015984080000,-102.00000,
,,,0.015984120000,-104.00000,
,,,0.015984160000,-104.00000,
,,,0.015984200000,-104.00000,
,,,0.015984240000,-104.00000,
,,,0.015984280000,-104.00000,
,,,0.015984320000,-104.00000,
,,,0.015984360000,-104.00000,
,,,0.015984400000,-104.00000,
,,,0.015984440000,-104.00000,
,,,0.015984480000,-104.00000,
,,,0.015984520000,-104.00000,
,,,0.015984560000,-102.00000,
,,,0.015984600000,-106.00000,
,,,0.015984640000,-104.00000,
,,,0.015984680000,-104.00000,
,,,0.015984720000,-104.00000,
,,,0.015984760000,-106.00000,
,,,0.015984800000,-104.00000,
,,,0.015984840000,-104.00000,
,,,0.015984880000,-106.00000,
,,,0.015984920000,-106.00000,
,,,0.015984960000,-104.00000,
,,,0.015985000000,-104.00000,
,,,0.015985040000,-104.00000,
,,,0.015985080000,-104.00000,
,,,0.015985120000,-106.00000,
,,,0.015985160000,-104.00000,
,,,0.015985200000,-104.00000,
,,,0.015985240000,-104.00000,
,,,0.015985280000,-102.00000,
,,,0.015985320000,-104.00000,
,,,0.015985360000,-102.00000,
,,,0.015985400000,-104.00000,
,,,0.015985440000,-104.00000,
,,,0.015985480000,-104.00000,
,,,0.015985520000,-104.00000,
,,,0.015985560000,-104.00000,
,,,0.015985600000,-102.00000,
,,,0.015985640000,-102.00000,
,,,0.015985680000,-104.00000,
,,,0.015985720000,-106.00000,
,,,0.015985760000,-104.00000,
,,,0.015985800000,-104.00000,
,,,0.015985840000,-106.00000,
,,,0.015985880000,-104.00000,
,,,0.015985920000,-104.00000,
,,,0.015985960000,-104.00000,
,,,0.015986000000,-104.00000,
,,,0.015986040000,-104.00000,
,,,0.015986080000,-102.00000,
,,,0.015986120000,-104.00000,
,,,0.015986160000,-102.00000,
,,,0.015986200000,-104.00000,
,,,0.015986240000,-104.00000,
,,,0.015986280000,-104.00000,
,,,0.015986320000,-104.00000,
,,,0.015986360000,-102.00000,
,,,0.015986400000,-104.00000,
,,,0.015986440000,-106.00000,
,,,0.015986480000,-104.00000,
,,,0.015986520000,-104.00000,
,,,0.015986560000,-102.00000,
,,,0.015986600000,-102.00000,
,,,0.015986640000,-100.00000,
,,,0.015986680000,-104.00000,
,,,0.015986720000,-106.00000,
,,,0.015986760000,-104.00000,
,,,0.015986800000,-104.00000,
,,,0.015986840000,-102.00000,
,,,0.015986880000,-102.00000,
,,,0.015986920000,-104.00000,
,,,0.015986960000,-104.00000,
,,,0.015987000000,-104.00000,
,,,0.015987040000,-104.00000,
,,,0.015987080000,-104.00000,
,,,0.015987120000,-102.00000,
,,,0.015987160000,-106.00000,
,,,0.015987200000,-104.00000,
,,,0.015987240000,-104.00000,
,,,0.015987280000,-104.00000,
,,,0.015987320000,-102.00000,
,,,0.015987360000,-104.00000,
,,,0.015987400000,-104.00000,
,,,0.015987440000,-104.00000,
,,,0.015987480000,-104.00000,
,,,0.015987520000,-104.00000,
,,,0.015987560000,-106.00000,
,,,0.015987600000,-102.00000,
,,,0.015987640000,-104.00000,
,,,0.015987680000,-102.00000,
,,,0.015987720000,-102.00000,
,,,0.015987760000,-102.00000,
,,,0.015987800000,-104.00000,
,,,0.015987840000,-102.00000,
,,,0.015987880000,-106.00000,
,,,0.015987920000,-102.00000,
,,,0.015987960000,-106.00000,
,,,0.015988000000,-102.00000,
,,,0.015988040000,-104.00000,
,,,0.015988080000,-102.00000,
,,,0.015988120000,-104.00000,
,,,0.015988160000,-104.00000,
,,,0.015988200000,-104.00000,
,,,0.015988240000,-102.00000,
,,,0.015988280000,-106.00000,
,,,0.015988320000,-104.00000,
,,,0.015988360000,-102.00000,
,,,0.015988400000,-102.00000,
,,,0.015988440000,-106.00000,
,,,0.015988480000,-104.00000,
,,,0.015988520000,-102.00000,
,,,0.015988560000,-102.00000,
,,,0.015988600000,-104.00000,
,,,0.015988640000,-102.00000,
,,,0.015988680000,-104.00000,
,,,0.015988720000,-104.00000,
,,,0.015988760000,-102.00000,
,,,0.015988800000,-102.00000,
,,,0.015988840000,-102.00000,
,,,0.015988880000,-104.00000,
,,,0.015988920000,-104.00000,
,,,0.015988960000,-104.00000,
,,,0.015989000000,-104.00000,
,,,0.015989040000,-102.00000,
,,,0.015989080000,-106.00000,
,,,0.015989120000,-104.00000,
,,,0.015989160000,-104.00000,
,,,0.015989200000,-104.00000,
,,,0.015989240000,-102.00000,
,,,0.015989280000,-106.00000,
,,,0.015989320000,-102.00000,
,,,0.015989360000,-102.00000,
,,,0.015989400000,-102.00000,
,,,0.015989440000,-106.00000,
,,,0.015989480000,-104.00000,
,,,0.015989520000,-104.00000,
,,,0.015989560000,-104.00000,
,,,0.015989600000,-102.00000,
,,,0.015989640000,-102.00000,
,,,0.015989680000,-106.00000,
,,,0.015989720000,-102.00000,
,,,0.015989760000,-104.00000,
,,,0.015989800000,-104.00000,
,,,0.015989840000,-104.00000,
,,,0.015989880000,-102.00000,
,,,0.015989920000, -52.00000,
,,,0.015989960000,   0.00000,
,,,0.015990000000,   0.00000,
,,,0.015990040000,   0.00000,
,,,0.015990080000,   0.00000,
,,,0.015990120000,   0.00000,
,,,0.015990160000,   0.00000,
,,,0.015990200000,   0.00000,
,,,0.015990240000,  -2.00000,
,,,0.015990280000,  -2.00000,
,,,0.015990320000,   4.00000,
,,,0.015990360000,   2.00000,
,,,0.015990400000,   0.00000,
,,,0.015990440000,   2.00000,
,,,0.015990480000,   2.00000,
,,,0.015990520000,   2.00000,
,,,0.015990560000,   0.00000,
,,,0.015990600000,   0.00000,
,,,0.015990640000,  -2.00000,
,,,0.015990680000,   0.00000,
,,,0.015990720000,   0.00000,
,,,0.015990760000,   2.00000,
,,,0.015990800000,   0.00000,
,,,0.015990840000,   2.00000,
,,,0.015990880000,   2.00000,
,,,0.015990920000,   2.00000,
,,,0.015990960000,   0.00000,
,,,0.015991000000,   2.00000,
,,,0.015991040000,   0.00000,
,,,0.015991080000,   0.00000,
,,,0.015991120000,   0.00000,
,,,0.015991160000,   0.00000,
,,,0.015991200000,  -2.00000,
,,,0.015991240000,   0.00000,
,,,0.015991280000,   0.00000,
,,,0.015991320000,   2.00000,
,,,0.015991360000,   0.00000,
,,,0.015991400000,   0.00000,
,,,0.015991440000,   0.00000,
,,,0.015991480000,   2.00000,
,,,0.015991520000,   0.00000,
,,,0.015991560000,   2.00000,
,,,0.015991600000,   0.00000,
,,,0.015991640000,   0.00000,
,,,0.015991680000,   0.00000,
,,,0.015991720000,   0.00000,
,,,0.015991760000,   0.00000,
,,,0.015991800000,   0.00000,
,,,0.015991840000,   0.00000,
,,,0.015991880000,  -2.00000,
,,,0.015991920000,   0.00000,
,,,0.015991960000,  -2.00000,
,,,0.015992000000,   0.00000,
,,,0.015992040000,   2.00000,
,,,0.015992080000,   0.00000,
,,,0.015992120000,   0.00000,
,,,0.015992160000,   0.00000,
,,,0.015992200000,   0.00000,
,,,0.015992240000,  -2.00000,
,,,0.015992280000,   0.00000,
,,,0.015992320000,   0.00000,
,,,0.015992360000,   0.00000,
,,,0.015992400000,  -2.00000,
,,,0.015992440000,   0.00000,
,,,0.015992480000,   0.00000,
,,,0.015992520000,   0.00000,
,,,0.015992560000,   2.00000,
,,,0.015992600000,   0.00000,
,,,0.015992640000,   0.00000,
,,,0.015992680000,   0.00000,
,,,0.015992720000,   0.00000,
,,,0.015992760000,   2.00000,
,,,0.015992800000,   2.00000,
,,,0.015992840000,   2.00000,
,,,0.015992880000,   0.00000,
,,,0.015992920000,  -2.00000,
,,,0.015992960000,   0.00000,
,,,0.015993000000,   0.00000,
,,,0.015993040000,   0.00000,
,,,0.015993080000,   0.00000,
,,,0.015993120000,   0.00000,
,,,0.015993160000,  -2.00000,
,,,0.015993200000,   2.00000,
,,,0.015993240000,  -2.00000,
,,,0.015993280000,   0.00000,
,,,0.015993320000,   0.00000,
,,,0.015993360000,   2.00000,
,,,0.015993400000,  -2.00000,
,,,0.015993440000,   0.00000,
,,,0.015993480000,  -2.00000,
,,,0.015993520000,   2.00000,
,,,0.015993560000,   0.00000,
,,,0.015993600000,   0.00000,
,,,0.015993640000,   0.00000,
,,,0.015993680000,   0.00000,
,,,0.015993720000,   0.00000,
,,,0.015993760000,   0.00000,
,,,0.015993800000,  -2.00000,
,,,0.015993840000,   0.00000,
,,,0.015993880000,   2.00000,
,,,0.015993920000,  -2.00000,
,,,0.015993960000,   0.00000,
,,,0.015994000000,   0.00000,
,,,0.015994040000,   0.00000,
,,,0.015994080000,   2.00000,
,,,0.015994120000,  -2.00000,
,,,0.015994160000,  -2.00000,
,,,0.015994200000,   0.00000,
,,,0.015994240000,   2.00000,
,,,0.015994280000,   4.00000,
,,,0.015994320000,   0.00000,
,,,0.015994360000,   0.00000,
,,,0.015994400000,   0.00000,
,,,0.015994440000,   0.00000,
,,,0.015994480000,   0.00000,
,,,0.015994520000,   0.00000,
,,,0.015994560000,  -2.00000,
,,,0.015994600000,  -2.00000,
,,,0.015994640000,   0.00000,
,,,0.015994680000,   0.00000,
,,,0.015994720000,   0.00000,
,,,0.015994760000,   0.00000,
,,,0.015994800000,   2.00000,
,,,0.015994840000,   0.00000,
,,,0.015994880000,   0.00000,
,,,0.015994920000,   0.00000,
,,,0.015994960000,   0.00000,
,,,0.015995000000,   0.00000,
,,,0.015995040000,  -2.00000,
,,,0.015995080000,   2.00000,
,,,0.015995120000,   0.00000,
,,,0.015995160000,   0.00000,
,,,0.015995200000,   0.00000,
,,,0.015995240000,   0.00000,
,,,0.015995280000,   0.00000,
,,,0.015995320000,   0.00000,
,,,0.015995360000,   0.00000,
,,,0.015995400000,   0.00000,
,,,0.015995440000,   0.00000,
,,,0.015995480000,   0.00000,
,,,0.015995520000,   2.00000,
,,,0.015995560000,   0.00000,
,,,0.015995600000,   0.00000,
,,,0.015995640000,   0.00000,
,,,0.015995680000,   0.00000,
,,,0.015995720000,   0.00000,
,,,0.015995760000,   0.00000,
,,,0.015995800000,   0.00000,
,,,0.015995840000,   0.00000,
,,,0.015995880000,   0.00000,
,,,0.015995920000,   0.00000,
,,,0.015995960000,   2.00000,
,,,0.015996000000,   2.00000,
,,,0.015996040000,   0.00000,
,,,0.015996080000,  -2.00000,
,,,0.015996120000,  -2.00000,
,,,0.015996160000,   0.00000,
,,,0.015996200000,   0.00000,
,,,0.015996240000,   2.00000,
,,,0.015996280000,   2.00000,
,,,0.015996320000,  -2.00000,
,,,0.015996360000,   0.00000,
,,,0.015996400000,   0.00000,
,,,0.015996440000,   2.00000,
,,,0.015996480000,  -2.00000,
,,,0.015996520000,   0.00000,
,,,0.015996560000,   0.00000,
,,,0.015996600000,   0.00000,
,,,0.015996640000,   0.00000,
,,,0.015996680000,   2.00000,
,,,0.015996720000,   0.00000,
,,,0.015996760000,   0.00000,
,,,0.015996800000,  -2.00000,
,,,0.015996840000,  -2.00000,
,,,0.015996880000,   0.00000,
,,,0.015996920000,   0.00000,
,,,0.015996960000,   0.00000,
,,,0.015997000000,   0.00000,
,,,0.015997040000,   2.00000,
,,,0.015997080000,   2.00000,
,,,0.015997120000,   0.00000,
