Capturas y Ensayos/Capturas Osciloscopio/Pruebas Sistema Completo - Con Carga/ALL0013/F0013CH1.CSV

Record Length,2.500000e+03,,   0.015968000000,  -0.80000,
Sample Interval,2.000000e-08,,   0.015968020000,  -1.60000,
Trigger Point,-7.984000000000e+05,,   0.015968040000,   0.00000,
,,,   0.015968060000,  -0.80000,
,,,   0.015968080000,  -1.60000,
,,,   0.015968100000,  -0.80000,
Source,CH1,,   0.015968120000,  -0.80000,
Vertical Units,V,,   0.015968140000,   0.00000,
Vertical Scale,2.000000e+01,,   0.015968160000,   0.00000,
Vertical Offset,-4.000000e+01,,   0.015968180000,   0.00000,
Horizontal Units,s,,   0.015968200000,   0.00000,
Horizontal Scale,5.000000e-06,,   0.015968220000,  -0.80000,
Pt Fmt,Y,,   0.015968240000,  -0.80000,
Yzero,0.000000e+00,,   0.015968260000,  -0.80000,
Probe Atten,1.000000e+01,,   0.015968280000,  -0.80000,
Model Number,TBS1102B,,   0.015968300000,  -0.80000,
Serial Number,C033696,,   0.015968320000,  -0.80000,
Firmware Version,FV:v4.06,,   0.015968340000,  -0.80000,
,,,0.015968360000,  -0.80000,
,,,0.015968380000,  -0.80000,
,,,0.015968400000,  -0.80000,
,,,0.015968420000,  -1.60000,
,,,0.015968440000,  -1.60000,
,,,0.015968460000,  -0.80000,
,,,0.015968480000,  -0.80000,
,,,0.015968500000,  -0.80000,
,,,0.015968520000,  -1.60000,
,,,0.015968540000,  -1.60000,
,,,0.015968560000,  -1.60000,
,,,0.015968580000,  -0.80000,
,,,0.015968600000,  -0.80000,
,,,0.015968620000,  -0.80000,
,,,0.015968640000,  -1.60000,
,,,0.015968660000,  -0.80000,
,,,0.015968680000,  -0.80000,
,,,0.015968700000,  -0.80000,
,,,0.015968720000,  -0.80000,
,,,0.015968740000,   0.00000,
,,,0.015968760000,  -0.80000,
,,,0.015968780000,   0.00000,
,,,0.015968800000,  -0.80000,
,,,0.015968820000,  -0.80000,
,,,0.015968840000,  -0.80000,
,,,0.015968860000,  -0.80000,
,,,0.015968880000,  -1.60000,
,,,0.015968900000,  -1.60000,
,,,0.015968920000,   0.00000,
,,,0.015968940000,  -0.80000,
,,,0.015968960000,  -0.80000,
,,,0.015968980000,  -0.80000,
,,,0.015969000000,  -0.80000,
,,,0.015969020000,  -1.60000,
,,,0.015969040000,  -0.80000,
,,,0.015969060000,  -0.80000,
,,,0.015969080000,  -0.80000,
,,,0.015969100000,  -0.80000,
,,,0.015969120000,  -1.60000,
,,,0.015969140000,  -0.80000,
,,,0.015969160000,  -1.60000,
,,,0.015969180000,  -0.80000,
,,,0.015969200000,  -0.80000,
,,,0.015969220000,  -1.60000,
,,,0.015969240000,  -1.60000,
,,,0.015969260000,  -0.80000,
,,,0.015969280000,  -0.80000,
,,,0.015969300000,  -1.60000,
,,,0.015969320000,  -1.60000,
,,,0.015969340000,  -0.80000,
,,,0.015969360000,  -1.60000,
,,,0.015969380000,  -0.80000,
,,,0.015969400000,  -0.80000,
,,,0.015969420000,  -0.80000,
,,,0.015969440000,  -0.80000,
,,,0.015969460000,  -0.80000,
,,,0.015969480000,  -0.80000,
,,,0.015969500000,  -0.80000,
,,,0.015969520000,   0.00000,
,,,0.015969540000,  -0.80000,
,,,0.015969560000,  -1.60000,
,,,0.015969580000,  -0.80000,
,,,0.015969600000,  -0.80000,
,,,0.015969620000,  -0.80000,
,,,0.015969640000,  -0.80000,
,,,0.015969660000,   0.00000,
,,,0.015969680000,  -0.80000,
,,,0.015969700000,  -0.80000,
,,,0.015969720000,  -0.80000,
,,,0.015969740000,  -0.80000,
,,,0.015969760000,  -0.80000,
,,,0.015969780000,  -0.80000,
,,,0.015969800000,  -1.60000,
,,,0.015969820000,  -0.80000,
,,,0.015969840000,  -0.80000,
,,,0.015969860000,  -0.80000,
,,,0.015969880000,  -0.80000,
,,,0.015969900000,  -1.60000,
,,,0.015969920000,  -1.60000,
,,,0.015969940000,  -0.80000,
,,,0.015969960000,  -0.80000,
,,,0.015969980000,  -0.80000,
,,,0.015970000000,  -0.80000,
,,,0.015970020000,  -0.80000,
,,,0.015970040000,   0.00000,
,,,0.015970060000,  -1.60000,
,,,0.015970080000,   0.00000,
,,,0.015970100000,  -0.80000,
,,,0.015970120000,  -1.60000,
,,,0.015970140000,   0.00000,
,,,0.015970160000,  -0.80000,
,,,0.015970180000,  -0.80000,
,,,0.015970200000,  -0.80000,
,,,0.015970220000,  -1.60000,
,,,0.015970240000,   0.00000,
,,,0.015970260000,  -1.60000,
,,,0.015970280000,  -0.80000,
,,,0.015970300000,   0.00000,
,,,0.015970320000,  -0.80000,
,,,0.015970340000,   0.00000,
,,,0.015970360000,  -0.80000,
,,,0.015970380000,  -0.80000,
,,,0.015970400000,  -1.60000,
,,,0.015970420000,  -0.80000,
,,,0.015970440000,   0.00000,
,,,0.015970460000,  -0.80000,
,,,0.015970480000,  -0.80000,
,,,0.015970500000,   0.00000,
,,,0.015970520000,  -1.60000,
,,,0.015970540000,  -0.80000,
,,,0.015970560000,  -0.80000,
,,,0.015970580000,  -0.80000,
,,,0.015970600000,  -1.60000,
,,,0.015970620000,  -0.80000,
,,,0.015970640000,  -0.80000,
,,,0.015970660000,   0.80000,
,,,0.015970680000,  -0.80000,
,,,0.015970700000,   0.00000,
,,,0.015970720000,  -0.80000,
,,,0.015970740000,  -0.80000,
,,,0.015970760000,  -0.80000,
,,,0.015970780000,  -0.80000,
,,,0.015970800000,  -2.40000,
,,,0.015970820000,  -0.80000,
,,,0.015970840000,  -0.80000,
,,,0.015970860000,  -0.80000,
,,,0.015970880000,  -0.80000,
,,,0.015970900000,   0.00000,
,,,0.015970920000,  -1.60000,
,,,0.015970940000,  -0.80000,
,,,0.015970960000,  -0.80000,
,,,0.015970980000,  -0.80000,
,,,0.015971000000,  -0.80000,
,,,0.015971020000,  -1.60000,
,,,0.015971040000,   0.00000,
,,,0.015971060000,  -0.80000,
,,,0.015971080000,  -0.80000,
,,,0.015971100000,  -0.80000,
,,,0.015971120000,  -0.80000,
,,,0.015971140000,  -1.60000,
,,,0.015971160000,  -0.80000,
,,,0.015971180000,  -0.80000,
,,,0.015971200000,  -0.80000,
,,,0.015971220000,   0.00000,
,,,0.015971240000,  -0.80000,
,,,0.015971260000,  -0.80000,
,,,0.015971280000,  -1.60000,
,,,0.015971300000,  -0.80000,
,,,0.015971320000,  -1.60000,
,,,0.015971340000,  -1.60000,
,,,0.015971360000,  -1.60000,
,,,0.015971380000,   0.00000,
,,,0.015971400000,  -0.80000,
,,,0.015971420000,  -1.60000,
,,,0.015971440000,  -0.80000,
,,,0.015971460000,  -0.80000,
,,,0.015971480000,  -0.80000,
,,,0.015971500000,  -0.80000,
,,,0.015971520000,  -0.80000,
,,,0.015971540000,  -0.80000,
,,,0.015971560000,   0.00000,
,,,0.015971580000,   0.00000,
,,,0.015971600000,  -1.60000,
,,,0.015971620000,   0.00000,
,,,0.015971640000,  -0.80000,
,,,0.015971660000,  -1.60000,
,,,0.015971680000,  -0.80000,
,,,0.015971700000,  -0.80000,
,,,0.015971720000,  -0.80000,
,,,0.015971740000,  -0.80000,
,,,0.015971760000,  -0.80000,
,,,0.015971780000,  -0.80000,
,,,0.015971800000,  -0.80000,
,,,0.015971820000,  -0.80000,
,,,0.015971840000,  -1.60000,
,,,0.015971860000,  -0.80000,
,,,0.015971880000,  -1.60000,
,,,0.015971900000,   0.00000,
,,,0.015971920000,   0.00000,
,,,0.015971940000,  -0.80000,
,,,0.015971960000,  -0.80000,
,,,0.015971980000,  -1.60000,
,,,0.015972000000,  -0.80000,
,,,0.015972020000,  -0.80000,
,,,0.015972040000,  -1.60000,
,,,0.015972060000,  -0.80000,
,,,0.015972080000,  -0.80000,
,,,0.015972100000,  -1.60000,
,,,0.015972120000,  -0.80000,
,,,0.015972140000,  -0.80000,
,,,0.015972160000,   0.00000,
,,,0.015972180000,  -0.80000,
,,,0.015972200000,  -0.80000,
,,,0.015972220000,  -0.80000,
,,,0.015972240000,   0.00000,
,,,0.015972260000,  -1.60000,
,,,0.015972280000,   0.00000,
,,,0.015972300000,  -0.80000,
,,,0.015972320000,  -0.80000,
,,,0.015972340000,  -1.60000,
,,,0.015972360000,  -0.80000,
,,,0.015972380000,  -0.80000,
,,,0.015972400000,  -1.60000,
,,,0.015972420000,  -0.80000,
,,,0.015972440000,  -1.60000,
,,,0.015972460000,  -0.80000,
,,,0.015972480000,   0.00000,
,,,0.015972500000,  -1.60000,
,,,0.015972520000,  -0.80000,
,,,0.015972540000,  -0.80000,
,,,0.015972560000,  -0.80000,
,,,0.015972580000,  -0.80000,
,,,0.015972600000,  -1.60000,
,,,0.015972620000,   0.00000,
,,,0.015972640000,  -0.80000,
,,,0.015972660000,  -0.80000,
,,,0.015972680000,  -0.80000,
,,,0.015972700000,  -0.80000,
,,,0.015972720000,  -0.80000,
,,,0.015972740000,  -0.80000,
,,,0.015972760000,  -0.80000,
,,,0.015972780000,  -0.80000,
,,,0.015972800000,  -1.60000,
,,,0.015972820000,  -0.80000,
,,,0.015972840000,  -1.60000,
,,,0.015972860000,  -0.80000,
,,,0.015972880000,   0.00000,
,,,0.015972900000,  -0.80000,
,,,0.015972920000,   0.00000,
,,,0.015972940000,   0.00000,
,,,0.015972960000,   0.00000,
,,,0.015972980000,  -0.80000,
,,,0.015973000000,  -0.80000,
,,,0.015973020000,  -1.60000,
,,,0.015973040000,  -0.80000,
,,,0.015973060000,   0.00000,
,,,0.015973080000,   0.00000,
,,,0.015973100000,  -1.60000,
,,,0.015973120000,  -1.60000,
,,,0.015973140000,  -0.80000,
,,,0.015973160000,   0.00000,
,,,0.015973180000,  -1.60000,
,,,0.015973200000,  -0.80000,
,,,0.015973220000,  -0.80000,
,,,0.015973240000,  -0.80000,
,,,0.015973260000,  -1.60000,
,,,0.015973280000,   0.00000,
,,,0.015973300000,  -0.80000,
,,,0.015973320000,  -0.80000,
,,,0.015973340000,  -0.80000,
,,,0.015973360000,  -0.80000,
,,,0.015973380000,  -1.60000,
,,,0.015973400000,  -0.80000,
,,,0.015973420000,  -1.60000,
,,,0.015973440000,  -0.80000,
,,,0.015973460000,  -0.80000,
,,,0.015973480000,  -0.80000,
,,,0.015973500000,  -0.80000,
,,,0.015973520000,  -1.60000,
,,,0.015973540000,   0.00000,
,,,0.015973560000,  -1.60000,
,,,0.015973580000,   0.00000,
,,,0.015973600000,  -0.80000,
,,,0.015973620000,  -0.80000,
,,,0.015973640000,  -0.80000,
,,,0.015973660000,  -0.80000,
,,,0.015973680000,  -0.80000,
,,,0.015973700000,  -0.80000,
,,,0.015973720000,   0.00000,
,,,0.015973740000,  -0.80000,
,,,0.015973760000,  -0.80000,
,,,0.015973780000,  -0.80000,
,,,0.015973800000,   0.00000,
,,,0.015973820000,  -0.80000,
,,,0.015973840000,  -0.80000,
,,,0.015973860000,  -0.80000,
,,,0.015973880000,  -0.80000,
,,,0.015973900000,  -0.80000,
,,,0.015973920000,  -0.80000,
,,,0.015973940000,  -0.80000,
,,,0.015973960000,  -0.80000,
,,,0.015973980000,  -0.80000,
,,,0.015974000000,  -0.80000,
,,,0.015974020000,  -0.80000,
,,,0.015974040000,  -0.80000,
,,,0.015974060000,  -0.80000,
,,,0.015974080000,  -0.80000,
,,,0.015974100000,  -0.80000,
,,,0.015974120000,  -0.80000,
,,,0.015974140000,   0.00000,
,,,0.015974160000,  -0.80000,
,,,0.015974180000,  -0.80000,
,,,0.015974200000,  -1.60000,
,,,0.015974220000,   0.00000,
,,,0.015974240000,  -1.60000,
,,,0.015974260000,  -0.80000,
,,,0.015974280000,   0.00000,
,,,0.015974300000,  -1.60000,
,,,0.015974320000,  -1.60000,
,,,0.015974340000,  -0.80000,
,,,0.015974360000,  -1.60000,
,,,0.015974380000,  -1.60000,
,,,0.015974400000,  -0.80000,
,,,0.015974420000,  -0.80000,
,,,0.015974440000,  -0.80000,
,,,0.015974460000,  -1.60000,
,,,0.015974480000,  -0.80000,
,,,0.015974500000,  -0.80000,
,,,0.015974520000,   0.00000,
,,,0.015974540000,  -0.80000,
,,,0.015974560000,  -0.80000,
,,,0.015974580000,  -0.80000,
,,,0.015974600000,  -0.80000,
,,,0.015974620000,  -0.80000,
,,,0.015974640000,  -0.80000,
,,,0.015974660000,  -0.80000,
,,,0.015974680000,   0.00000,
,,,0.015974700000,  -0.80000,
,,,0.015974720000,   0.00000,
,,,0.015974740000,   0.00000,
,,,0.015974760000,  -1.60000,
,,,0.015974780000,  -0.80000,
,,,0.015974800000,  -0.80000,
,,,0.015974820000,  -0.80000,
,,,0.015974840000,  -1.60000,
,,,0.015974860000,   0.00000,
,,,0.015974880000,  -0.80000,
,,,0.015974900000,  -0.80000,
,,,0.015974920000,  -0.80000,
,,,0.015974940000,   0.00000,
,,,0.015974960000,  -0.80000,
,,,0.015974980000,  -0.80000,
,,,0.015975000000,  -0.80000,
,,,0.015975020000,  -0.80000,
,,,0.015975040000,   0.00000,
,,,0.015975060000,  -0.80000,
,,,0.015975080000,  -0.80000,
,,,0.015975100000,  -1.60000,
,,,0.015975120000,  -0.80000,
,,,0.015975140000,  -0.80000,
,,,0.015975160000,  -0.80000,
,,,0.015975180000,  -0.80000,
,,,0.015975200000,  -0.80000,
,,,0.015975220000,  -0.80000,
,,,0.015975240000,  -0.80000,
,,,0.015975260000,  -0.80000,
,,,0.015975280000,   0.00000,
,,,0.015975300000,  -0.80000,
,,,0.015975320000,  -0.80000,
,,,0.015975340000,   0.00000,
,,,0.015975360000,  -0.80000,
,,,0.015975380000,  -0.80000,
,,,0.015975400000,  -1.60000,
,,,0.015975420000,  -0.80000,
,,,0.015975440000,  -0.80000,
,,,0.015975460000,  -0.80000,
,,,0.015975480000,  -0.80000,
,,,0.015975500000,  -0.80000,
,,,0.015975520000,  -0.80000,
,,,0.015975540000,  -0.80000,
,,,0.015975560000,  -0.80000,
,,,0.015975580000,  -1.60000,
,,,0.015975600000,  -1.60000,
,,,0.015975620000,  -0.80000,
,,,0.015975640000,   0.00000,
,,,0.015975660000,   0.00000,
,,,0.015975680000,   0.00000,
,,,0.015975700000,  -0.80000,
,,,0.015975720000,  -1.60000,
,,,0.015975740000,  -1.60000,
,,,0.015975760000,   0.00000,
,,,0.015975780000,  -0.80000,
,,,0.015975800000,  -0.80000,
,,,0.015975820000,  -1.60000,
,,,0.015975840000,  -0.80000,
,,,0.015975860000,  -0.80000,
,,,0.015975880000,  -0.80000,
,,,0.015975900000,  -0.80000,
,,,0.015975920000,  -0.80000,
,,,0.015975940000,  -1.60000,
,,,0.015975960000,  -0.80000,
,,,0.015975980000,  -0.80000,
,,,0.015976000000,  -0.80000,
,,,0.015976020000,  -0.80000,
,,,0.015976040000,  -0.80000,
,,,0.015976060000,  -1.60000,
,,,0.015976080000,  -0.80000,
,,,0.015976100000,   0.00000,
,,,0.015976120000,   0.00000,
,,,0.015976140000,  -0.80000,
,,,0.015976160000,  -1.60000,
,,,0.015976180000,   0.00000,
,,,0.015976200000,   0.00000,
,,,0.015976220000,  -1.60000,
,,,0.015976240000,  -0.80000,
,,,0.015976260000,  -1.60000,
,,,0.015976280000,  -0.80000,
,,,0.015976300000,  -1.60000,
,,,0.015976320000,  -0.80000,
,,,0.015976340000,  -0.80000,
,,,0.015976360000,  -1.60000,
,,,0.015976380000,  -0.80000,
,,,0.015976400000,   0.00000,
,,,0.015976420000,   0.00000,
,,,0.015976440000,  -1.60000,
,,,0.015976460000,  -0.80000,
,,,0.015976480000,  -0.80000,
,,,0.015976500000,  -0.80000,
,,,0.015976520000,  -0.80000,
,,,0.015976540000,   0.00000,
,,,0.015976560000,  -0.80000,
,,,0.015976580000,   0.00000,
,,,0.015976600000,   0.00000,
,,,0.015976620000,   0.00000,
,,,0.015976640000,  -0.80000,
,,,0.015976660000,   0.00000,
,,,0.015976680000,  -0.80000,
,,,0.015976700000,  -0.80000,
,,,0.015976720000,  -0.80000,
,,,0.015976740000,  -0.80000,
,,,0.015976760000,  -1.60000,
,,,0.015976780000,   0.00000,
,,,0.015976800000,  -0.80000,
,,,0.015976820000,  -0.80000,
,,,0.015976840000,   0.00000,
,,,0.015976860000,  -0.80000,
,,,0.015976880000,   0.00000,
,,,0.015976900000,   0.00000,
,,,0.015976920000,  -0.80000,
,,,0.015976940000,  -0.80000,
,,,0.015976960000,  -1.60000,
,,,0.015976980000,  -0.80000,
,,,0.015977000000,   0.00000,
,,,0.015977020000,  -0.80000,
,,,0.015977040000,   0.00000,
,,,0.015977060000,   0.00000,
,,,0.015977080000,   0.00000,
,,,0.015977100000,  -0.80000,
,,,0.015977120000,  -0.80000,
,,,0.015977140000,  -0.80000,
,,,0.015977160000,  -0.80000,
,,,0.015977180000,  -0.80000,
,,,0.015977200000,  -0.80000,
,,,0.015977220000,  -0.80000,
,,,0.015977240000,  -0.80000,
,,,0.015977260000,  -0.80000,
,,,0.015977280000,  -0.80000,
,,,0.015977300000,  -0.80000,
,,,0.015977320000,  -0.80000,
,,,0.015977340000,   0.00000,
,,,0.015977360000,  -0.80000,
,,,0.015977380000,  -0.80000,
,,,0.015977400000,  -0.80000,
,,,0.015977420000,  -0.80000,
,,,0.015977440000,  -0.80000,
,,,0.015977460000,  -0.80000,
,,,0.015977480000,   0.00000,
,,,0.015977500000,   0.00000,
,,,0.015977520000,  -0.80000,
,,,0.015977540000,  -0.80000,
,,,0.015977560000,  -0.80000,
,,,0.015977580000,   0.80000,
,,,0.015977600000,  12.00000,
,,,0.015977620000,  41.60000,
,,,0.015977640000,  76.80000,
,,,0.015977660000, 100.80000,
,,,0.015977680000, 106.40000,
,,,0.015977700000,  89.60000,
,,,0.015977720000,  62.40000,
,,,0.015977740000,  41.60000,
,,,0.015977760000,  33.60000,
,,,0.015977780000,  32.80000,
,,,0.015977800000,  46.40000,
,,,0.015977820000,  59.20000,
,,,0.015977840000,  66.40000,
,,,0.015977860000,  66.40000,
,,,0.015977880000,  63.20000,
,,,0.015977900000,  56.80000,
,,,0.015977920000,  51.20000,
,,,0.015977940000,  49.60000,
,,,0.015977960000,  50.40000,
,,,0.015977980000,  44.80000,
,,,0.015978000000,  44.00000,
,,,0.015978020000,  44.00000,
,,,0.015978040000,  45.60000,
,,,0.015978060000,  48.00000,
,,,0.015978080000,  56.00000,
,,,0.015978100000,  61.60000,
,,,0.015978120000,  63.20000,
,,,0.015978140000,  63.20000,
,,,0.015978160000,  60.00000,
,,,0.015978180000,  51.20000,
,,,0.015978200000,  43.20000,
,,,0.015978220000,  37.60000,
,,,0.015978240000,  39.20000,
,,,0.015978260000,  44.00000,
,,,0.015978280000,  52.00000,
,,,0.015978300000,  60.80000,
,,,0.015978320000,  65.60000,
,,,0.015978340000,  64.00000,
,,,0.015978360000,  58.40000,
,,,0.015978380000,  50.40000,
,,,0.015978400000,  43.20000,
,,,0.015978420000,  40.00000,
,,,0.015978440000,  41.60000,
,,,0.015978460000,  47.20000,
,,,0.015978480000,  52.80000,
,,,0.015978500000,  58.40000,
,,,0.015978520000,  60.00000,
,,,0.015978540000,  58.40000,
,,,0.015978560000,  56.80000,
,,,0.015978580000,  52.80000,
,,,0.015978600000,  48.80000,
,,,0.015978620000,  47.20000,
,,,0.015978640000,  46.40000,
,,,0.015978660000,  46.40000,
,,,0.015978680000,  48.00000,
,,,0.015978700000,  50.40000,
,,,0.015978720000,  53.60000,
,,,0.015978740000,  56.00000,
,,,0.015978760000,  56.80000,
,,,0.015978780000,  56.00000,
,,,0.015978800000,  53.60000,
,,,0.015978820000,  52.00000,
,,,0.015978840000,  49.60000,
,,,0.015978860000,  46.40000,
,,,0.015978880000,  47.20000,
,,,0.015978900000,  48.00000,
,,,0.015978920000,  51.20000,
,,,0.015978940000,  54.40000,
,,,0.015978960000,  56.00000,
,,,0.015978980000,  56.80000,
,,,0.015979000000,  54.40000,
,,,0.015979020000,  51.20000,
,,,0.015979040000,  48.80000,
,,,0.015979060000,  48.00000,
,,,0.015979080000,  48.00000,
,,,0.015979100000,  49.60000,
,,,0.015979120000,  51.20000,
,,,0.015979140000,  54.40000,
,,,0.015979160000,  55.20000,
,,,0.015979180000,  54.40000,
,,,0.015979200000,  52.80000,
,,,0.015979220000,  52.00000,
,,,0.015979240000,  49.60000,
,,,0.015979260000,  49.60000,
,,,0.015979280000,  50.40000,
,,,0.015979300000,  50.40000,
,,,0.015979320000,  51.20000,
,,,0.015979340000,  51.20000,
,,,0.015979360000,  51.20000,
,,,0.015979380000,  52.00000,
,,,0.015979400000,  52.00000,
,,,0.015979420000,  52.80000,
,,,0.015979440000,  52.80000,
,,,0.015979460000,  52.00000,
,,,0.015979480000,  51.20000,
,,,0.015979500000,  50.40000,
,,,0.015979520000,  50.40000,
,,,0.015979540000,  50.40000,
,,,0.015979560000,  51.20000,
,,,0.015979580000,  52.00000,
,,,0.015979600000,  53.60000,
,,,0.015979620000,  53.60000,
,,,0.015979640000,  53.60000,
,,,0.015979660000,  52.80000,
,,,0.015979680000,  51.20000,
,,,0.015979700000,  50.40000,
,,,0.015979720000,  49.60000,
,,,0.015979740000,  50.40000,
,,,0.015979760000,  51.20000,
,,,0.015979780000,  52.00000,
,,,0.015979800000,  53.60000,
,,,0.015979820000,  52.80000,
,,,0.015979840000,  53.60000,
,,,0.015979860000,  52.80000,
,,,0.015979880000,  51.20000,
,,,0.015979900000,  50.40000,
,,,0.015979920000,  50.40000,
,,,0.015979940000,  50.40000,
,,,0.015979960000,  51.20000,
,,,0.015979980000,  52.00000,
,,,0.015980000000,  52.80000,
,,,0.015980020000,  52.00000,
,,,0.015980040000,  52.80000,
,,,0.015980060000,  52.00000,
,,,0.015980080000,  51.20000,
,,,0.015980100000,  51.20000,
,,,0.015980120000,  50.40000,
,,,0.015980140000,  51.20000,
,,,0.015980160000,  50.40000,
,,,0.015980180000,  52.00000,
,,,0.015980200000,  51.20000,
,,,0.015980220000,  52.00000,
,,,0.015980240000,  52.00000,
,,,0.015980260000,  52.00000,
,,,0.015980280000,  52.00000,
,,,0.015980300000,  52.80000,
,,,0.015980320000,  52.00000,
,,,0.015980340000,  51.20000,
,,,0.015980360000,  52.00000,
,,,0.015980380000,  51.20000,
,,,0.015980400000,  50.40000,
,,,0.015980420000,  51.20000,
,,,0.015980440000,  51.20000,
,,,0.015980460000,  51.20000,
,,,0.015980480000,  52.00000,
,,,0.015980500000,  51.20000,
,,,0.015980520000,  52.00000,
,,,0.015980540000,  51.20000,
,,,0.015980560000,  51.20000,
,,,0.015980580000,  52.00000,
,,,0.015980600000,  52.00000,
,,,0.015980620000,  51.20000,
,,,0.015980640000,  52.00000,
,,,0.015980660000,  52.00000,
,,,0.015980680000,  52.00000,
,,,0.015980700000,  51.20000,
,,,0.015980720000,  52.00000,
,,,0.015980740000,  51.20000,
,,,0.015980760000,  51.20000,
,,,0.015980780000,  51.20000,
,,,0.015980800000,  51.20000,
,,,0.015980820000,  51.20000,
,,,0.015980840000,  51.20000,
,,,0.015980860000,  52.00000,
,,,0.015980880000,  51.20000,
,,,0.015980900000,  51.20000,
,,,0.015980920000,  52.00000,
,,,0.015980940000,  51.20000,
,,,0.015980960000,  52.00000,
,,,0.015980980000,  50.40000,
,,,0.015981000000,  52.00000,
,,,0.015981020000,  51.20000,
,,,0.015981040000,  52.00000,
,,,0.015981060000,  52.00000,
