Capturas y Ensayos/Capturas Osciloscopio/Pruebas Sistema Completo - Con Carga/ALL0032/F0032CH2.CSV

Record Length,2.500000e+03,,   0.015996200000,   0.95200,
Sample Interval,2.000000e-08,,   0.015996220000,   0.96000,
Trigger Point,-7.998100000000e+05,,   0.015996240000,   0.95200,
,,,   0.015996260000,   0.95200,
,,,   0.015996280000,   0.95200,
,,,   0.015996300000,   0.95200,
Source,CH2,,   0.015996320000,   0.95200,
Vertical Units,V,,   0.015996340000,   0.95200,
Vertical Scale,2.000000e-01,,   0.015996360000,   0.95200,
Vertical Offset,-7.200000e-01,,   0.015996380000,   0.95200,
Horizontal Units,s,,   0.015996400000,   0.95200,
Horizontal Scale,5.000000e-06,,   0.015996420000,   0.95200,
Pt Fmt,Y,,   0.015996440000,   0.95200,
Yzero,0.000000e+00,,   0.015996460000,   0.95200,
Probe Atten,1.000000e+00,,   0.015996480000,   0.94400,
Model Number,TBS1102B,,   0.015996500000,   0.95200,
Serial Number,C033696,,   0.015996520000,   0.95200,
Firmware Version,FV:v4.06,,   0.015996540000,   0.94400,
,,,0.015996560000,   0.95200,
,,,0.015996580000,   0.94400,
,,,0.015996600000,   0.94400,
,,,0.015996620000,   0.94400,
,,,0.015996640000,   0.94400,
,,,0.015996660000,   0.95200,
,,,0.015996680000,   0.95200,
,,,0.015996700000,   0.95200,
,,,0.015996720000,   0.95200,
,,,0.015996740000,   0.94400,
,,,0.015996760000,   0.93600,
,,,0.015996780000,   0.95200,
,,,0.015996800000,   0.95200,
,,,0.015996820000,   0.94400,
,,,0.015996840000,   0.93600,
,,,0.015996860000,   0.94400,
,,,0.015996880000,   0.93600,
,,,0.015996900000,   0.93600,
,,,0.015996920000,   0.93600,
,,,0.015996940000,   0.94400,
,,,0.015996960000,   0.93600,
,,,0.015996980000,   0.93600,
,,,0.015997000000,   0.93600,
,,,0.015997020000,   0.93600,
,,,0.015997040000,   0.93600,
,,,0.015997060000,   0.93600,
,,,0.015997080000,   0.93600,
,,,0.015997100000,   0.93600,
,,,0.015997120000,   0.92800,
,,,0.015997140000,   0.93600,
,,,0.015997160000,   0.94400,
,,,0.015997180000,   0.93600,
,,,0.015997200000,   0.92800,
,,,0.015997220000,   0.92800,
,,,0.015997240000,   0.92800,
,,,0.015997260000,   0.93600,
,,,0.015997280000,   0.93600,
,,,0.015997300000,   0.93600,
,,,0.015997320000,   0.93600,
,,,0.015997340000,   0.93600,
,,,0.015997360000,   0.93600,
,,,0.015997380000,   0.92800,
,,,0.015997400000,   0.92800,
,,,0.015997420000,   0.93600,
,,,0.015997440000,   0.92800,
,,,0.015997460000,   0.92800,
,,,0.015997480000,   0.92800,
,,,0.015997500000,   0.92800,
,,,0.015997520000,   0.92000,
,,,0.015997540000,   0.92800,
,,,0.015997560000,   0.92000,
,,,0.015997580000,   0.92000,
,,,0.015997600000,   0.92800,
,,,0.015997620000,   0.92800,
,,,0.015997640000,   0.93600,
,,,0.015997660000,   0.92800,
,,,0.015997680000,   0.92000,
,,,0.015997700000,   0.92800,
,,,0.015997720000,   0.92000,
,,,0.015997740000,   0.92800,
,,,0.015997760000,   0.92000,
,,,0.015997780000,   0.91200,
,,,0.015997800000,   0.92000,
,,,0.015997820000,   0.92000,
,,,0.015997840000,   0.92000,
,,,0.015997860000,   0.92000,
,,,0.015997880000,   0.91200,
,,,0.015997900000,   0.92000,
,,,0.015997920000,   0.92000,
,,,0.015997940000,   0.91200,
,,,0.015997960000,   0.91200,
,,,0.015997980000,   0.92000,
,,,0.015998000000,   0.91200,
,,,0.015998020000,   0.91200,
,,,0.015998040000,   0.92000,
,,,0.015998060000,   0.92000,
,,,0.015998080000,   0.92000,
,,,0.015998100000,   0.90400,
,,,0.015998120000,   0.91200,
,,,0.015998140000,   0.92000,
,,,0.015998160000,   0.91200,
,,,0.015998180000,   0.92000,
,,,0.015998200000,   0.91200,
,,,0.015998220000,   0.90400,
,,,0.015998240000,   0.90400,
,,,0.015998260000,   0.90400,
,,,0.015998280000,   0.90400,
,,,0.015998300000,   0.90400,
,,,0.015998320000,   0.90400,
,,,0.015998340000,   0.90400,
,,,0.015998360000,   0.89600,
,,,0.015998380000,   0.90400,
,,,0.015998400000,   0.89600,
,,,0.015998420000,   0.89600,
,,,0.015998440000,   0.90400,
,,,0.015998460000,   0.90400,
,,,0.015998480000,   0.89600,
,,,0.015998500000,   0.90400,
,,,0.015998520000,   0.90400,
,,,0.015998540000,   0.89600,
,,,0.015998560000,   0.90400,
,,,0.015998580000,   0.90400,
,,,0.015998600000,   0.89600,
,,,0.015998620000,   0.89600,
,,,0.015998640000,   0.89600,
,,,0.015998660000,   0.89600,
,,,0.015998680000,   0.88800,
,,,0.015998700000,   0.89600,
,,,0.015998720000,   0.90400,
,,,0.015998740000,   0.89600,
,,,0.015998760000,   0.89600,
,,,0.015998780000,   0.90400,
,,,0.015998800000,   0.88800,
,,,0.015998820000,   0.89600,
,,,0.015998840000,   0.89600,
,,,0.015998860000,   0.90400,
,,,0.015998880000,   0.88800,
,,,0.015998900000,   0.89600,
,,,0.015998920000,   0.89600,
,,,0.015998940000,   0.88800,
,,,0.015998960000,   0.88800,
,,,0.015998980000,   0.88800,
,,,0.015999000000,   0.88800,
,,,0.015999020000,   0.88800,
,,,0.015999040000,   0.88800,
,,,0.015999060000,   0.88800,
,,,0.015999080000,   0.88800,
,,,0.015999100000,   0.88800,
,,,0.015999120000,   0.89600,
,,,0.015999140000,   0.88800,
,,,0.015999160000,   0.88000,
,,,0.015999180000,   0.88000,
,,,0.015999200000,   0.88800,
,,,0.015999220000,   0.89600,
,,,0.015999240000,   0.88000,
,,,0.015999260000,   0.88800,
,,,0.015999280000,   0.88800,
,,,0.015999300000,   0.88800,
,,,0.015999320000,   0.88800,
,,,0.015999340000,   0.88800,
,,,0.015999360000,   0.88000,
,,,0.015999380000,   0.88000,
,,,0.015999400000,   0.88000,
,,,0.015999420000,   0.88000,
,,,0.015999440000,   0.88800,
,,,0.015999460000,   0.88000,
,,,0.015999480000,   0.88000,
,,,0.015999500000,   0.87200,
,,,0.015999520000,   0.88000,
,,,0.015999540000,   0.88000,
,,,0.015999560000,   0.88000,
,,,0.015999580000,   0.88000,
,,,0.015999600000,   0.87200,
,,,0.015999620000,   0.87200,
,,,0.015999640000,   0.86400,
,,,0.015999660000,   0.88000,
,,,0.015999680000,   0.87200,
,,,0.015999700000,   0.88000,
,,,0.015999720000,   0.87200,
,,,0.015999740000,   0.87200,
,,,0.015999760000,   0.87200,
,,,0.015999780000,   0.87200,
,,,0.015999800000,   0.87200,
,,,0.015999820000,   0.87200,
,,,0.015999840000,   0.87200,
,,,0.015999860000,   0.87200,
,,,0.015999880000,   0.88000,
,,,0.015999900000,   0.87200,
,,,0.015999920000,   0.86400,
,,,0.015999940000,   0.86400,
,,,0.015999960000,   0.86400,
,,,0.015999980000,   0.86400,
,,,0.016000000000,   0.86400,
,,,0.016000020000,   0.87200,
,,,0.016000040000,   0.86400,
,,,0.016000060000,   0.86400,
,,,0.016000080000,   0.86400,
,,,0.016000100000,   0.86400,
,,,0.016000120000,   0.86400,
,,,0.016000140000,   0.86400,
,,,0.016000160000,   0.85600,
,,,0.016000180000,   0.86400,
,,,0.016000200000,   0.86400,
,,,0.016000220000,   0.86400,
,,,0.016000240000,   0.85600,
,,,0.016000260000,   0.85600,
,,,0.016000280000,   0.85600,
,,,0.016000300000,   0.85600,
,,,0.016000320000,   0.86400,
,,,0.016000340000,   0.85600,
,,,0.016000360000,   0.86400,
,,,0.016000380000,   0.85600,
,,,0.016000400000,   0.85600,
,,,0.016000420000,   0.86400,
,,,0.016000440000,   0.85600,
,,,0.016000460000,   0.84800,
,,,0.016000480000,   0.85600,
,,,0.016000500000,   0.84800,
,,,0.016000520000,   0.84800,
,,,0.016000540000,   0.84800,
,,,0.016000560000,   0.85600,
,,,0.016000580000,   0.84800,
,,,0.016000600000,   0.84800,
,,,0.016000620000,   0.85600,
,,,0.016000640000,   0.85600,
,,,0.016000660000,   0.85600,
,,,0.016000680000,   0.84800,
,,,0.016000700000,   0.84800,
,,,0.016000720000,   0.84800,
,,,0.016000740000,   0.85600,
,,,0.016000760000,   0.85600,
,,,0.016000780000,   0.84800,
,,,0.016000800000,   0.84800,
,,,0.016000820000,   0.84800,
,,,0.016000840000,   0.84800,
,,,0.016000860000,   0.84800,
,,,0.016000880000,   0.84800,
,,,0.016000900000,   0.84800,
,,,0.016000920000,   0.84000,
,,,0.016000940000,   0.84000,
,,,0.016000960000,   0.83200,
,,,0.016000980000,   0.84000,
,,,0.016001000000,   0.84000,
,,,0.016001020000,   0.84000,
,,,0.016001040000,   0.84800,
,,,0.016001060000,   0.84000,
,,,0.016001080000,   0.84000,
,,,0.016001100000,   0.84800,
,,,0.016001120000,   0.84800,
,,,0.016001140000,   0.84000,
,,,0.016001160000,   0.83200,
,,,0.016001180000,   0.84000,
,,,0.016001200000,   0.83200,
,,,0.016001220000,   0.84000,
,,,0.016001240000,   0.83200,
,,,0.016001260000,   0.84000,
,,,0.016001280000,   0.84000,
,,,0.016001300000,   0.83200,
,,,0.016001320000,   0.82400,
,,,0.016001340000,   0.83200,
,,,0.016001360000,   0.84000,
,,,0.016001380000,   0.83200,
,,,0.016001400000,   0.83200,
,,,0.016001420000,   0.82400,
,,,0.016001440000,   0.82400,
,,,0.016001460000,   0.83200,
,,,0.016001480000,   0.83200,
,,,0.016001500000,   0.82400,
,,,0.016001520000,   0.82400,
,,,0.016001540000,   0.83200,
,,,0.016001560000,   0.83200,
,,,0.016001580000,   0.83200,
,,,0.016001600000,   0.83200,
,,,0.016001620000,   0.82400,
,,,0.016001640000,   0.82400,
,,,0.016001660000,   0.83200,
,,,0.016001680000,   0.82400,
,,,0.016001700000,   0.83200,
,,,0.016001720000,   0.83200,
,,,0.016001740000,   0.83200,
,,,0.016001760000,   0.82400,
,,,0.016001780000,   0.83200,
,,,0.016001800000,   0.82400,
,,,0.016001820000,   0.83200,
,,,0.016001840000,   0.82400,
,,,0.016001860000,   0.82400,
,,,0.016001880000,   0.81600,
,,,0.016001900000,   0.81600,
,,,0.016001920000,   0.81600,
,,,0.016001940000,   0.81600,
,,,0.016001960000,   0.81600,
,,,0.016001980000,   0.80800,
,,,0.016002000000,   0.82400,
,,,0.016002020000,   0.80800,
,,,0.016002040000,   0.81600,
,,,0.016002060000,   0.82400,
,,,0.016002080000,   0.81600,
,,,0.016002100000,   0.81600,
,,,0.016002120000,   0.81600,
,,,0.016002140000,   0.80800,
,,,0.016002160000,   0.81600,
,,,0.016002180000,   0.80800,
,,,0.016002200000,   0.80800,
,,,0.016002220000,   0.80800,
,,,0.016002240000,   0.80800,
,,,0.016002260000,   0.80800,
,,,0.016002280000,   0.80000,
,,,0.016002300000,   0.80800,
,,,0.016002320000,   0.80000,
,,,0.016002340000,   0.81600,
,,,0.016002360000,   0.80800,
,,,0.016002380000,   0.80800,
,,,0.016002400000,   0.80800,
,,,0.016002420000,   0.81600,
,,,0.016002440000,   0.80800,
,,,0.016002460000,   0.80800,
,,,0.016002480000,   0.80800,
,,,0.016002500000,   0.80800,
,,,0.016002520000,   0.80800,
,,,0.016002540000,   0.80000,
,,,0.016002560000,   0.82400,
,,,0.016002580000,   0.80800,
,,,0.016002600000,   0.79200,
,,,0.016002620000,   0.81600,
,,,0.016002640000,   0.79200,
,,,0.016002660000,   0.80000,
,,,0.016002680000,   0.85600,
,,,0.016002700000,   0.87200,
,,,0.016002720000,   0.90400,
,,,0.016002740000,   0.89600,
,,,0.016002760000,   0.89600,
,,,0.016002780000,   0.89600,
,,,0.016002800000,   0.88000,
,,,0.016002820000,   0.84800,
,,,0.016002840000,   0.81600,
,,,0.016002860000,   0.81600,
,,,0.016002880000,   0.80000,
,,,0.016002900000,   0.77600,
,,,0.016002920000,   0.80000,
,,,0.016002940000,   0.82400,
,,,0.016002960000,   0.83200,
,,,0.016002980000,   0.88000,
,,,0.016003000000,   0.91200,
,,,0.016003020000,   0.88000,
,,,0.016003040000,   0.89600,
,,,0.016003060000,   0.89600,
,,,0.016003080000,   0.83200,
,,,0.016003100000,   0.84000,
,,,0.016003120000,   0.83200,
,,,0.016003140000,   0.80800,
,,,0.016003160000,   0.83200,
,,,0.016003180000,   0.84800,
,,,0.016003200000,   0.86400,
,,,0.016003220000,   0.87200,
,,,0.016003240000,   0.86400,
,,,0.016003260000,   0.85600,
,,,0.016003280000,   0.85600,
,,,0.016003300000,   0.84800,
,,,0.016003320000,   0.84800,
,,,0.016003340000,   0.85600,
,,,0.016003360000,   0.85600,
,,,0.016003380000,   0.86400,
,,,0.016003400000,   0.87200,
,,,0.016003420000,   0.88000,
,,,0.016003440000,   0.88000,
,,,0.016003460000,   0.86400,
,,,0.016003480000,   0.85600,
,,,0.016003500000,   0.84800,
,,,0.016003520000,   0.85600,
,,,0.016003540000,   0.84800,
,,,0.016003560000,   0.86400,
,,,0.016003580000,   0.85600,
,,,0.016003600000,   0.86400,
,,,0.016003620000,   0.87200,
,,,0.016003640000,   0.86400,
,,,0.016003660000,   0.86400,
,,,0.016003680000,   0.85600,
,,,0.016003700000,   0.86400,
,,,0.016003720000,   0.85600,
,,,0.016003740000,   0.86400,
,,,0.016003760000,   0.86400,
,,,0.016003780000,   0.87200,
,,,0.016003800000,   0.88800,
,,,0.016003820000,   0.88800,
,,,0.016003840000,   0.88000,
,,,0.016003860000,   0.88000,
,,,0.016003880000,   0.86400,
,,,0.016003900000,   0.86400,
,,,0.016003920000,   0.84800,
,,,0.016003940000,   0.85600,
,,,0.016003960000,   0.86400,
,,,0.016003980000,   0.87200,
,,,0.016004000000,   0.87200,
,,,0.016004020000,   0.88800,
,,,0.016004040000,   0.87200,
,,,0.016004060000,   0.88000,
,,,0.016004080000,   0.88000,
,,,0.016004100000,   0.88000,
,,,0.016004120000,   0.88000,
,,,0.016004140000,   0.87200,
,,,0.016004160000,   0.88000,
,,,0.016004180000,   0.87200,
,,,0.016004200000,   0.87200,
,,,0.016004220000,   0.87200,
,,,0.016004240000,   0.87200,
,,,0.016004260000,   0.88000,
,,,0.016004280000,   0.87200,
,,,0.016004300000,   0.88800,
,,,0.016004320000,   0.88800,
,,,0.016004340000,   0.88800,
,,,0.016004360000,   0.88000,
,,,0.016004380000,   0.88000,
,,,0.016004400000,   0.88000,
,,,0.016004420000,   0.88000,
,,,0.016004440000,   0.88000,
,,,0.016004460000,   0.88800,
,,,0.016004480000,   0.88000,
,,,0.016004500000,   0.88800,
,,,0.016004520000,   0.88000,
,,,0.016004540000,   0.89600,
,,,0.016004560000,   0.88800,
,,,0.016004580000,   0.88000,
,,,0.016004600000,   0.88000,
,,,0.016004620000,   0.88000,
,,,0.016004640000,   0.88800,
,,,0.016004660000,   0.88000,
,,,0.016004680000,   0.89600,
,,,0.016004700000,   0.89600,
,,,0.016004720000,   0.90400,
,,,0.016004740000,   0.89600,
,,,0.016004760000,   0.89600,
,,,0.016004780000,   0.89600,
,,,0.016004800000,   0.88800,
,,,0.016004820000,   0.89600,
,,,0.016004840000,   0.88800,
,,,0.016004860000,   0.89600,
,,,0.016004880000,   0.88800,
,,,0.016004900000,   0.90400,
,,,0.016004920000,   0.90400,
,,,0.016004940000,   0.90400,
,,,0.016004960000,   0.89600,
,,,0.016004980000,   0.90400,
,,,0.016005000000,   0.89600,
,,,0.016005020000,   0.88800,
,,,0.016005040000,   0.89600,
,,,0.016005060000,   0.89600,
,,,0.016005080000,   0.90400,
,,,0.016005100000,   0.90400,
,,,0.016005120000,   0.89600,
,,,0.016005140000,   0.90400,
,,,0.016005160000,   0.90400,
,,,0.016005180000,   0.90400,
,,,0.016005200000,   0.89600,
,,,0.016005220000,   0.90400,
,,,0.016005240000,   0.90400,
,,,0.016005260000,   0.90400,
,,,0.016005280000,   0.90400,
,,,0.016005300000,   0.89600,
,,,0.016005320000,   0.90400,
,,,0.016005340000,   0.91200,
,,,0.016005360000,   0.90400,
,,,0.016005380000,   0.91200,
,,,0.016005400000,   0.90400,
,,,0.016005420000,   0.91200,
,,,0.016005440000,   0.90400,
,,,0.016005460000,   0.90400,
,,,0.016005480000,   0.91200,
,,,0.016005500000,   0.91200,
,,,0.016005520000,   0.91200,
,,,0.016005540000,   0.92000,
,,,0.016005560000,   0.91200,
,,,0.016005580000,   0.91200,
,,,0.016005600000,   0.92000,
,,,0.016005620000,   0.92000,
,,,0.016005640000,   0.92000,
,,,0.016005660000,   0.92000,
,,,0.016005680000,   0.90400,
,,,0.016005700000,   0.91200,
,,,0.016005720000,   0.91200,
,,,0.016005740000,   0.91200,
,,,0.016005760000,   0.91200,
,,,0.016005780000,   0.92000,
,,,0.016005800000,   0.91200,
,,,0.016005820000,   0.91200,
,,,0.016005840000,   0.92000,
,,,0.016005860000,   0.91200,
,,,0.016005880000,   0.92800,
,,,0.016005900000,   0.92800,
,,,0.016005920000,   0.92000,
,,,0.016005940000,   0.92800,
,,,0.016005960000,   0.92800,
,,,0.016005980000,   0.92000,
,,,0.016006000000,   0.92000,
,,,0.016006020000,   0.92800,
,,,0.016006040000,   0.92800,
,,,0.016006060000,   0.92800,
,,,0.016006080000,   0.92800,
,,,0.016006100000,   0.92800,
,,,0.016006120000,   0.92000,
,,,0.016006140000,   0.92800,
,,,0.016006160000,   0.92000,
,,,0.016006180000,   0.92800,
,,,0.016006200000,   0.92800,
,,,0.016006220000,   0.92800,
,,,0.016006240000,   0.93600,
,,,0.016006260000,   0.94400,
,,,0.016006280000,   0.93600,
,,,0.016006300000,   0.93600,
,,,0.016006320000,   0.93600,
,,,0.016006340000,   0.93600,
,,,0.016006360000,   0.93600,
,,,0.016006380000,   0.92800,
,,,0.016006400000,   0.93600,
,,,0.016006420000,   0.92800,
,,,0.016006440000,   0.93600,
,,,0.016006460000,   0.93600,
,,,0.016006480000,   0.93600,
,,,0.016006500000,   0.93600,
,,,0.016006520000,   0.93600,
,,,0.016006540000,   0.93600,
,,,0.016006560000,   0.93600,
,,,0.016006580000,   0.94400,
,,,0.016006600000,   0.94400,
,,,0.016006620000,   0.94400,
,,,0.016006640000,   0.94400,
,,,0.016006660000,   0.94400,
,,,0.016006680000,   0.94400,
,,,0.016006700000,   0.94400,
,,,0.016006720000,   0.94400,
,,,0.016006740000,   0.93600,
,,,0.016006760000,   0.95200,
,,,0.016006780000,   0.94400,
,,,0.016006800000,   0.95200,
,,,0.016006820000,   0.94400,
,,,0.016006840000,   0.93600,
,,,0.016006860000,   0.94400,
,,,0.016006880000,   0.93600,
,,,0.016006900000,   0.94400,
,,,0.016006920000,   0.95200,
,,,0.016006940000,   0.95200,
,,,0.016006960000,   0.94400,
,,,0.016006980000,   0.95200,
,,,0.016007000000,   0.96000,
,,,0.016007020000,   0.95200,
,,,0.016007040000,   0.94400,
,,,0.016007060000,   0.95200,
,,,0.016007080000,   0.95200,
,,,0.016007100000,   0.95200,
,,,0.016007120000,   0.95200,
,,,0.016007140000,   0.95200,
,,,0.016007160000,   0.95200,
,,,0.016007180000,   0.95200,
,,,0.016007200000,   0.95200,
,,,0.016007220000,   0.95200,
,,,0.016007240000,   0.95200,
,,,0.016007260000,   0.96000,
,,,0.016007280000,   0.96000,
,,,0.016007300000,   0.96000,
,,,0.016007320000,   0.96000,
,,,0.016007340000,   0.96000,
,,,0.016007360000,   0.96000,
,,,0.016007380000,   0.96800,
,,,0.016007400000,   0.96800,
,,,0.016007420000,   0.96800,
,,,0.016007440000,   0.96000,
,,,0.016007460000,   0.97600,
,,,0.016007480000,   0.96000,
,,,0.016007500000,   0.97600,
,,,0.016007520000,   0.96800,
,,,0.016007540000,   0.97600,
,,,0.016007560000,   0.96800,
,,,0.016007580000,   0.96800,
,,,0.016007600000,   0.96800,
,,,0.016007620000,   0.96800,
,,,0.016007640000,   0.96800,
,,,0.016007660000,   0.96800,
,,,0.016007680000,   0.96800,
,,,0.016007700000,   0.96800,
,,,0.016007720000,   0.96800,
,,,0.016007740000,   0.96800,
,,,0.016007760000,   0.97600,
,,,0.016007780000,   0.96800,
,,,0.016007800000,   0.97600,
,,,0.016007820000,   0.96800,
,,,0.016007840000,   0.97600,
,,,0.016007860000,   0.97600,
,,,0.016007880000,   0.97600,
,,,0.016007900000,   0.97600,
,,,0.016007920000,   0.96800,
,,,0.016007940000,   0.96800,
,,,0.016007960000,   0.97600,
,,,0.016007980000,   0.98400,
,,,0.016008000000,   0.97600,
,,,0.016008020000,   0.98400,
,,,0.016008040000,   0.97600,
,,,0.016008060000,   0.97600,
,,,0.016008080000,   0.98400,
,,,0.016008100000,   0.97600,
,,,0.016008120000,   0.97600,
,,,0.016008140000,   0.98400,
,,,0.016008160000,   0.97600,
,,,0.016008180000,   0.98400,
,,,0.016008200000,   0.98400,
,,,0.016008220000,   0.98400,
,,,0.016008240000,   0.98400,
,,,0.016008260000,   0.98400,
,,,0.016008280000,   0.99200,
,,,0.016008300000,   0.98400,
,,,0.016008320000,   0.98400,
,,,0.016008340000,   0.98400,
,,,0.016008360000,   0.98400,
,,,0.016008380000,   0.98400,
,,,0.016008400000,   0.98400,
,,,0.016008420000,   0.98400,
,,,0.016008440000,   0.99200,
,,,0.016008460000,   0.98400,
,,,0.016008480000,   0.99200,
,,,0.016008500000,   0.99200,
,,,0.016008520000,   0.99200,
,,,0.016008540000,   0.99200,
,,,0.016008560000,   0.99200,
,,,0.016008580000,   0.99200,
,,,0.016008600000,   0.99200,
,,,0.016008620000,   0.99200,
,,,0.016008640000,   0.99200,
,,,0.016008660000,   1.00000,
,,,0.016008680000,   1.00000,
,,,0.016008700000,   1.00000,
,,,0.016008720000,   1.00800,
,,,0.016008740000,   1.00000,
,,,0.016008760000,   1.00000,
,,,0.016008780000,   1.00000,
,,,0.016008800000,   1.00800,
,,,0.016008820000,   1.00000,
,,,0.016008840000,   1.00000,
,,,0.016008860000,   1.00000,
,,,0.016008880000,   1.00000,
,,,0.016008900000,   1.00000,
,,,0.016008920000,   1.00800,
,,,0.016008940000,   1.00000,
,,,0.016008960000,   0.99200,
,,,0.016008980000,   1.00000,
,,,0.016009000000,   1.00000,
,,,0.016009020000,   1.00000,
,,,0.016009040000,   1.00000,
,,,0.016009060000,   1.00800,
,,,0.016009080000,   1.00800,
,,,0.016009100000,   1.01600,
,,,0.016009120000,   1.00800,
,,,0.016009140000,   1.01600,
,,,0.016009160000,   1.01600,
,,,0.016009180000,   1.00800,
,,,0.016009200000,   1.01600,
,,,0.016009220000,   1.01600,
,,,0.016009240000,   1.00800,
,,,0.016009260000,   1.00800,
