Capturas y Ensayos/Capturas Osciloscopio/Pruebas PWM y Drivers/5 - Salidas Driver Izq/F0004CH2.CSV

Record Length,2.500000e+03,,  -0.000100200000,  11.40000,
Sample Interval,1.000000e-07,,  -0.000100100000,  11.60000,
Trigger Point,1.002000000000e+03,,  -0.000100000000,  11.40000,
,,,  -0.000099900000,  11.80000,
,,,  -0.000099800000,  11.40000,
,,,  -0.000099700000,   0.20000,
Source,CH2,,  -0.000099600000,   0.20000,
Vertical Units,V,,  -0.000099500000,   0.00000,
Vertical Scale,5.000000e+00,,  -0.000099400000,   0.20000,
Vertical Offset,-1.240000e+01,,  -0.000099300000,   0.20000,
Horizontal Units,s,,  -0.000099200000,   0.20000,
Horizontal Scale,2.500000e-05,,  -0.000099100000,   0.20000,
Pt Fmt,Y,,  -0.000099000000,   0.20000,
Yzero,0.000000e+00,,  -0.000098900000,   0.40000,
Probe Atten,1.000000e+01,,  -0.000098800000,   0.20000,
Model Number,TBS1102B,,  -0.000098700000,   0.40000,
Serial Number,C033696,,  -0.000098600000,   0.20000,
Firmware Version,FV:v4.06,,  -0.000098500000,   0.20000,
,,,-00.000098400000,   0.40000,
,,,-00.000098300000,   0.20000,
,,,-00.000098200000,   0.20000,
,,,-00.000098100000,   0.00000,
,,,-00.000098000000,   0.40000,
,,,-00.000097900000,   0.40000,
,,,-00.000097800000,   0.40000,
,,,-00.000097700000,   0.40000,
,,,-00.000097600000,   0.00000,
,,,-00.000097500000,   0.20000,
,,,-00.000097400000,   0.40000,
,,,-00.000097300000,   0.20000,
,,,-00.000097200000,   0.40000,
,,,-00.000097100000,   0.20000,
,,,-00.000097000000,   0.20000,
,,,-00.000096900000,   0.40000,
,,,-00.000096800000,   0.20000,
,,,-00.000096700000,   0.20000,
,,,-00.000096600000,   0.00000,
,,,-00.000096500000,   0.40000,
,,,-00.000096400000,   0.20000,
,,,-00.000096300000,   0.20000,
,,,-00.000096200000,   0.20000,
,,,-00.000096100000,   0.20000,
,,,-00.000096000000,   0.00000,
,,,-00.000095900000,   0.20000,
,,,-00.000095800000,   0.40000,
,,,-00.000095700000,   0.20000,
,,,-00.000095600000,   0.40000,
,,,-00.000095500000,   0.40000,
,,,-00.000095400000,   0.40000,
,,,-00.000095300000,   0.20000,
,,,-00.000095200000,   0.20000,
,,,-00.000095100000,   0.40000,
,,,-00.000095000000,   0.00000,
,,,-00.000094900000,   0.20000,
,,,-00.000094800000,   0.20000,
,,,-00.000094700000,   0.20000,
,,,-00.000094600000,   0.00000,
,,,-00.000094500000,   0.40000,
,,,-00.000094400000,   0.20000,
,,,-00.000094300000,   0.20000,
,,,-00.000094200000,   0.20000,
,,,-00.000094100000,   0.20000,
,,,-00.000094000000,   0.20000,
,,,-00.000093900000,   0.20000,
,,,-00.000093800000,   0.40000,
,,,-00.000093700000,   0.40000,
,,,-00.000093600000,   0.20000,
,,,-00.000093500000,   0.20000,
,,,-00.000093400000,   0.20000,
,,,-00.000093300000,   0.20000,
,,,-00.000093200000,   0.20000,
,,,-00.000093100000,   0.20000,
,,,-00.000093000000,   0.20000,
,,,-00.000092900000,   0.40000,
,,,-00.000092800000,   0.00000,
,,,-00.000092700000,   0.40000,
,,,-00.000092600000,   0.20000,
,,,-00.000092500000,   0.40000,
,,,-00.000092400000,   0.40000,
,,,-00.000092300000,   0.20000,
,,,-00.000092200000,   0.20000,
,,,-00.000092100000,   0.20000,
,,,-00.000092000000,   0.40000,
,,,-00.000091900000,   0.40000,
,,,-00.000091800000,   0.20000,
,,,-00.000091700000,   0.00000,
,,,-00.000091600000,   0.40000,
,,,-00.000091500000,   0.20000,
,,,-00.000091400000,   0.00000,
,,,-00.000091300000,   0.20000,
,,,-00.000091200000,   0.20000,
,,,-00.000091100000,   0.20000,
,,,-00.000091000000,   0.20000,
,,,-00.000090900000,   0.20000,
,,,-00.000090800000,   0.00000,
,,,-00.000090700000,   0.40000,
,,,-00.000090600000,   0.20000,
,,,-00.000090500000,   0.40000,
,,,-00.000090400000,   0.20000,
,,,-00.000090300000,   0.40000,
,,,-00.000090200000,   0.40000,
,,,-00.000090100000,   0.00000,
,,,-00.000090000000,   0.40000,
,,,-00.000089900000,   0.00000,
,,,-00.000089800000,   0.00000,
,,,-00.000089700000,   0.20000,
,,,-00.000089600000,   0.00000,
,,,-00.000089500000,  -0.20000,
,,,-00.000089400000,   0.00000,
,,,-00.000089300000,   0.20000,
,,,-00.000089200000,   0.20000,
,,,-00.000089100000,   0.00000,
,,,-00.000089000000,   0.40000,
,,,-00.000088900000,   0.00000,
,,,-00.000088800000,   0.40000,
,,,-00.000088700000,   0.20000,
,,,-00.000088600000,   0.20000,
,,,-00.000088500000,   0.00000,
,,,-00.000088400000,   0.00000,
,,,-00.000088300000,   0.20000,
,,,-00.000088200000,   0.20000,
,,,-00.000088100000,   0.20000,
,,,-00.000088000000,   0.00000,
,,,-00.000087900000,   0.20000,
,,,-00.000087800000,   0.00000,
,,,-00.000087700000,   0.40000,
,,,-00.000087600000,   0.40000,
,,,-00.000087500000,   0.00000,
,,,-00.000087400000,   0.20000,
,,,-00.000087300000,  -0.20000,
,,,-00.000087200000,   0.20000,
,,,-00.000087100000,   0.20000,
,,,-00.000087000000,   0.20000,
,,,-00.000086900000,   0.40000,
,,,-00.000086800000,   0.20000,
,,,-00.000086700000,   0.20000,
,,,-00.000086600000,   0.20000,
,,,-00.000086500000,   0.20000,
,,,-00.000086400000,   0.00000,
,,,-00.000086300000,   0.20000,
,,,-00.000086200000,   0.20000,
,,,-00.000086100000,   0.40000,
,,,-00.000086000000,   0.20000,
,,,-00.000085900000,   0.20000,
,,,-00.000085800000,   0.20000,
,,,-00.000085700000,   0.40000,
,,,-00.000085600000,   0.20000,
,,,-00.000085500000,   0.20000,
,,,-00.000085400000,   0.00000,
,,,-00.000085300000,   0.00000,
,,,-00.000085200000,   0.20000,
,,,-00.000085100000,   0.00000,
,,,-00.000085000000,   0.20000,
,,,-00.000084900000,   0.20000,
,,,-00.000084800000,   0.20000,
,,,-00.000084700000,  -0.40000,
,,,-00.000084600000,   0.20000,
,,,-00.000084500000,   0.00000,
,,,-00.000084400000,   0.20000,
,,,-00.000084300000,   0.20000,
,,,-00.000084200000,   0.20000,
,,,-00.000084100000,   0.20000,
,,,-00.000084000000,   0.20000,
,,,-00.000083900000,   0.00000,
,,,-00.000083800000,   0.40000,
,,,-00.000083700000,   0.20000,
,,,-00.000083600000,   0.20000,
,,,-00.000083500000,   0.40000,
,,,-00.000083400000,   0.40000,
,,,-00.000083300000,   0.20000,
,,,-00.000083200000,   0.40000,
,,,-00.000083100000,   0.40000,
,,,-00.000083000000,   0.20000,
,,,-00.000082900000,   0.20000,
,,,-00.000082800000,   0.00000,
,,,-00.000082700000,   0.20000,
,,,-00.000082600000,   0.40000,
,,,-00.000082500000,   0.20000,
,,,-00.000082400000,   0.20000,
,,,-00.000082300000,   0.00000,
,,,-00.000082200000,   0.20000,
,,,-00.000082100000,   0.00000,
,,,-00.000082000000,   0.20000,
,,,-00.000081900000,   0.20000,
,,,-00.000081800000,   0.20000,
,,,-00.000081700000,   0.20000,
,,,-00.000081600000,   0.20000,
,,,-00.000081500000,   0.00000,
,,,-00.000081400000,   0.40000,
,,,-00.000081300000,   0.40000,
,,,-00.000081200000,   0.20000,
,,,-00.000081100000,   0.40000,
,,,-00.000081000000,   0.20000,
,,,-00.000080900000,   0.40000,
,,,-00.000080800000,   0.00000,
,,,-00.000080700000,   0.20000,
,,,-00.000080600000,   0.00000,
,,,-00.000080500000,   0.00000,
,,,-00.000080400000,   0.20000,
,,,-00.000080300000,   0.40000,
,,,-00.000080200000,   0.20000,
,,,-00.000080100000,   0.20000,
,,,-00.000080000000,   0.20000,
,,,-00.000079900000,   0.20000,
,,,-00.000079800000,   0.20000,
,,,-00.000079700000,   0.00000,
,,,-00.000079600000,   0.00000,
,,,-00.000079500000,   0.20000,
,,,-00.000079400000,   0.40000,
,,,-00.000079300000,   0.40000,
,,,-00.000079200000,   0.20000,
,,,-00.000079100000,   0.40000,
,,,-00.000079000000,   0.20000,
,,,-00.000078900000,   0.20000,
,,,-00.000078800000,   0.20000,
,,,-00.000078700000,   0.00000,
,,,-00.000078600000,   0.00000,
,,,-00.000078500000,   0.20000,
,,,-00.000078400000,   0.40000,
,,,-00.000078300000,   0.20000,
,,,-00.000078200000,   0.00000,
,,,-00.000078100000,   0.00000,
,,,-00.000078000000,   0.00000,
,,,-00.000077900000,   0.20000,
,,,-00.000077800000,   0.40000,
,,,-00.000077700000,   0.00000,
,,,-00.000077600000,   0.40000,
,,,-00.000077500000,   0.00000,
,,,-00.000077400000,   0.00000,
,,,-00.000077300000,   0.40000,
,,,-00.000077200000,   0.20000,
,,,-00.000077100000,   0.40000,
,,,-00.000077000000,   0.20000,
,,,-00.000076900000,   0.20000,
,,,-00.000076800000,   0.20000,
,,,-00.000076700000,   0.40000,
,,,-00.000076600000,   0.40000,
,,,-00.000076500000,   0.00000,
,,,-00.000076400000,   0.20000,
,,,-00.000076300000,   0.40000,
,,,-00.000076200000,   0.20000,
,,,-00.000076100000,   0.40000,
,,,-00.000076000000,   0.00000,
,,,-00.000075900000,   0.20000,
,,,-00.000075800000,   0.00000,
,,,-00.000075700000,   0.20000,
,,,-00.000075600000,   0.40000,
,,,-00.000075500000,  -0.20000,
,,,-00.000075400000,   0.20000,
,,,-00.000075300000,   0.00000,
,,,-00.000075200000,   0.20000,
,,,-00.000075100000,   0.20000,
,,,-00.000075000000,   0.20000,
,,,-00.000074900000,   0.20000,
,,,-00.000074800000,  -0.40000,
,,,-00.000074700000,   0.00000,
,,,-00.000074600000,   0.20000,
,,,-00.000074500000,   0.40000,
,,,-00.000074400000,  11.60000,
,,,-00.000074300000,  11.60000,
,,,-00.000074200000,  11.40000,
,,,-00.000074100000,  11.40000,
,,,-00.000074000000,  11.40000,
,,,-00.000073900000,  11.60000,
,,,-00.000073800000,  11.40000,
,,,-00.000073700000,  11.60000,
,,,-00.000073600000,  11.60000,
,,,-00.000073500000,  11.40000,
,,,-00.000073400000,  11.20000,
,,,-00.000073300000,  11.60000,
,,,-00.000073200000,  11.40000,
,,,-00.000073100000,  11.40000,
,,,-00.000073000000,  11.40000,
,,,-00.000072900000,  11.60000,
,,,-00.000072800000,  11.60000,
,,,-00.000072700000,  11.80000,
,,,-00.000072600000,  11.60000,
,,,-00.000072500000,  11.60000,
,,,-00.000072400000,  11.40000,
,,,-00.000072300000,  11.40000,
,,,-00.000072200000,  11.20000,
,,,-00.000072100000,  11.60000,
,,,-00.000072000000,  11.40000,
,,,-00.000071900000,  11.20000,
,,,-00.000071800000,  11.40000,
,,,-00.000071700000,  11.20000,
,,,-00.000071600000,  11.60000,
,,,-00.000071500000,  11.60000,
,,,-00.000071400000,  11.40000,
,,,-00.000071300000,  11.40000,
,,,-00.000071200000,  11.60000,
,,,-00.000071100000,  11.40000,
,,,-00.000071000000,  11.40000,
,,,-00.000070900000,  11.20000,
,,,-00.000070800000,  11.60000,
,,,-00.000070700000,  11.40000,
,,,-00.000070600000,  11.40000,
,,,-00.000070500000,  11.60000,
,,,-00.000070400000,  11.40000,
,,,-00.000070300000,  11.60000,
,,,-00.000070200000,  11.40000,
,,,-00.000070100000,  11.60000,
,,,-00.000070000000,  11.40000,
,,,-00.000069900000,  11.40000,
,,,-00.000069800000,  11.40000,
,,,-00.000069700000,  11.40000,
,,,-00.000069600000,  11.40000,
,,,-00.000069500000,  11.40000,
,,,-00.000069400000,  11.40000,
,,,-00.000069300000,  11.40000,
,,,-00.000069200000,  11.60000,
,,,-00.000069100000,  11.40000,
,,,-00.000069000000,  11.20000,
,,,-00.000068900000,  11.60000,
,,,-00.000068800000,  11.40000,
,,,-00.000068700000,  11.40000,
,,,-00.000068600000,  11.60000,
,,,-00.000068500000,  11.40000,
,,,-00.000068400000,  11.60000,
,,,-00.000068300000,  11.40000,
,,,-00.000068200000,  11.40000,
,,,-00.000068100000,  11.60000,
,,,-00.000068000000,  11.40000,
,,,-00.000067900000,  11.60000,
,,,-00.000067800000,  11.20000,
,,,-00.000067700000,  11.40000,
,,,-00.000067600000,  11.40000,
,,,-00.000067500000,  11.40000,
,,,-00.000067400000,  11.40000,
,,,-00.000067300000,  11.40000,
,,,-00.000067200000,  11.40000,
,,,-00.000067100000,  11.40000,
,,,-00.000067000000,  11.20000,
,,,-00.000066900000,  11.40000,
,,,-00.000066800000,  11.40000,
,,,-00.000066700000,  11.60000,
,,,-00.000066600000,  11.40000,
,,,-00.000066500000,  11.60000,
,,,-00.000066400000,  11.60000,
,,,-00.000066300000,  11.40000,
,,,-00.000066200000,  11.20000,
,,,-00.000066100000,  11.60000,
,,,-00.000066000000,  11.60000,
,,,-00.000065900000,  11.40000,
,,,-00.000065800000,  11.20000,
,,,-00.000065700000,  11.40000,
,,,-00.000065600000,  11.40000,
,,,-00.000065500000,  11.40000,
,,,-00.000065400000,  11.20000,
,,,-00.000065300000,  11.40000,
,,,-00.000065200000,  11.20000,
,,,-00.000065100000,  11.40000,
,,,-00.000065000000,  11.40000,
,,,-00.000064900000,  11.20000,
,,,-00.000064800000,  11.40000,
,,,-00.000064700000,  11.40000,
,,,-00.000064600000,  11.60000,
,,,-00.000064500000,  11.20000,
,,,-00.000064400000,  11.20000,
,,,-00.000064300000,  11.60000,
,,,-00.000064200000,  11.40000,
,,,-00.000064100000,  11.40000,
,,,-00.000064000000,  11.40000,
,,,-00.000063900000,  11.40000,
,,,-00.000063800000,  11.40000,
,,,-00.000063700000,  11.40000,
,,,-00.000063600000,  11.40000,
,,,-00.000063500000,  11.20000,
,,,-00.000063400000,  11.40000,
,,,-00.000063300000,  11.20000,
,,,-00.000063200000,  11.40000,
,,,-00.000063100000,  11.20000,
,,,-00.000063000000,  11.40000,
,,,-00.000062900000,  11.60000,
,,,-00.000062800000,  11.40000,
,,,-00.000062700000,  11.60000,
,,,-00.000062600000,  11.60000,
,,,-00.000062500000,  11.60000,
,,,-00.000062400000,  11.60000,
,,,-00.000062300000,  11.40000,
,,,-00.000062200000,  11.60000,
,,,-00.000062100000,  11.20000,
,,,-00.000062000000,  11.60000,
,,,-00.000061900000,  11.40000,
,,,-00.000061800000,  11.40000,
,,,-00.000061700000,  11.40000,
,,,-00.000061600000,  11.60000,
,,,-00.000061500000,  11.40000,
,,,-00.000061400000,  11.40000,
,,,-00.000061300000,  11.20000,
,,,-00.000061200000,  11.60000,
,,,-00.000061100000,  11.80000,
,,,-00.000061000000,  11.20000,
,,,-00.000060900000,  11.60000,
,,,-00.000060800000,  11.40000,
,,,-00.000060700000,  11.20000,
,,,-00.000060600000,  11.20000,
,,,-00.000060500000,  11.60000,
,,,-00.000060400000,  11.60000,
,,,-00.000060300000,  11.20000,
,,,-00.000060200000,  11.80000,
,,,-00.000060100000,  11.20000,
,,,-00.000060000000,  11.60000,
,,,-00.000059900000,  11.60000,
,,,-00.000059800000,  11.20000,
,,,-00.000059700000,  11.40000,
,,,-00.000059600000,  11.60000,
,,,-00.000059500000,  11.20000,
,,,-00.000059400000,  11.40000,
,,,-00.000059300000,  11.60000,
,,,-00.000059200000,  11.80000,
,,,-00.000059100000,  11.40000,
,,,-00.000059000000,  11.60000,
,,,-00.000058900000,  11.60000,
,,,-00.000058800000,  11.40000,
,,,-00.000058700000,  11.40000,
,,,-00.000058600000,  11.40000,
,,,-00.000058500000,  11.40000,
,,,-00.000058400000,  11.60000,
,,,-00.000058300000,  11.40000,
,,,-00.000058200000,  11.60000,
,,,-00.000058100000,  11.40000,
,,,-00.000058000000,  11.40000,
,,,-00.000057900000,  11.40000,
,,,-00.000057800000,  11.40000,
,,,-00.000057700000,  11.40000,
,,,-00.000057600000,  11.60000,
,,,-00.000057500000,  11.40000,
,,,-00.000057400000,  11.40000,
,,,-00.000057300000,  11.40000,
,,,-00.000057200000,  11.60000,
,,,-00.000057100000,  11.60000,
,,,-00.000057000000,  11.40000,
,,,-00.000056900000,  11.40000,
,,,-00.000056800000,  11.60000,
,,,-00.000056700000,  11.60000,
,,,-00.000056600000,  11.20000,
,,,-00.000056500000,  11.40000,
,,,-00.000056400000,  11.40000,
,,,-00.000056300000,  11.40000,
,,,-00.000056200000,  11.40000,
,,,-00.000056100000,  11.40000,
,,,-00.000056000000,  11.60000,
,,,-00.000055900000,  11.60000,
,,,-00.000055800000,  11.60000,
,,,-00.000055700000,  11.40000,
,,,-00.000055600000,  11.40000,
,,,-00.000055500000,  11.40000,
,,,-00.000055400000,  11.60000,
,,,-00.000055300000,  11.40000,
,,,-00.000055200000,  11.60000,
,,,-00.000055100000,  11.20000,
,,,-00.000055000000,  11.00000,
,,,-00.000054900000,  11.20000,
,,,-00.000054800000,  11.40000,
,,,-00.000054700000,  11.20000,
,,,-00.000054600000,  11.40000,
,,,-00.000054500000,  11.40000,
,,,-00.000054400000,  11.60000,
,,,-00.000054300000,  11.40000,
,,,-00.000054200000,  11.40000,
,,,-00.000054100000,  11.60000,
,,,-00.000054000000,  11.40000,
,,,-00.000053900000,  11.20000,
,,,-00.000053800000,  11.40000,
,,,-00.000053700000,  11.20000,
,,,-00.000053600000,  11.40000,
,,,-00.000053500000,  11.60000,
,,,-00.000053400000,  11.40000,
,,,-00.000053300000,  11.60000,
,,,-00.000053200000,  11.60000,
,,,-00.000053100000,  11.60000,
,,,-00.000053000000,  11.60000,
,,,-00.000052900000,  11.40000,
,,,-00.000052800000,  11.60000,
,,,-00.000052700000,  11.40000,
,,,-00.000052600000,  11.60000,
,,,-00.000052500000,  11.60000,
,,,-00.000052400000,  11.40000,
,,,-00.000052300000,  11.40000,
,,,-00.000052200000,  11.20000,
,,,-00.000052100000,  11.40000,
,,,-00.000052000000,  11.40000,
,,,-00.000051900000,  11.20000,
,,,-00.000051800000,  11.40000,
,,,-00.000051700000,  11.60000,
,,,-00.000051600000,  11.60000,
,,,-00.000051500000,  11.60000,
,,,-00.000051400000,  11.20000,
,,,-00.000051300000,  11.40000,
,,,-00.000051200000,  11.60000,
,,,-00.000051100000,  11.40000,
,,,-00.000051000000,  11.40000,
,,,-00.000050900000,  11.60000,
,,,-00.000050800000,  11.40000,
,,,-00.000050700000,  11.40000,
,,,-00.000050600000,  11.40000,
,,,-00.000050500000,  11.40000,
,,,-00.000050400000,  11.20000,
,,,-00.000050300000,  11.60000,
,,,-00.000050200000,  11.20000,
,,,-00.000050100000,  11.60000,
,,,-00.000050000000,  11.60000,
,,,-00.000049900000,  11.20000,
,,,-00.000049800000,  11.40000,
,,,-00.000049700000,  -0.20000,
,,,-00.000049600000,   0.20000,
,,,-00.000049500000,   0.20000,
,,,-00.000049400000,   0.20000,
,,,-00.000049300000,   0.40000,
,,,-00.000049200000,   0.20000,
,,,-00.000049100000,   0.20000,
,,,-00.000049000000,   0.20000,
,,,-00.000048900000,   0.20000,
,,,-00.000048800000,   0.20000,
,,,-00.000048700000,   0.20000,
,,,-00.000048600000,   0.40000,
,,,-00.000048500000,   0.20000,
,,,-00.000048400000,   0.40000,
,,,-00.000048300000,   0.20000,
,,,-00.000048200000,   0.40000,
,,,-00.000048100000,   0.40000,
,,,-00.000048000000,   0.20000,
,,,-00.000047900000,   0.20000,
,,,-00.000047800000,   0.40000,
,,,-00.000047700000,   0.20000,
,,,-00.000047600000,   0.40000,
,,,-00.000047500000,   0.60000,
,,,-00.000047400000,   0.20000,
,,,-00.000047300000,   0.60000,
,,,-00.000047200000,   0.40000,
,,,-00.000047100000,   0.00000,
,,,-00.000047000000,   0.40000,
,,,-00.000046900000,   0.20000,
,,,-00.000046800000,   0.00000,
,,,-00.000046700000,   0.20000,
,,,-00.000046600000,   0.20000,
,,,-00.000046500000,   0.20000,
,,,-00.000046400000,   0.20000,
,,,-00.000046300000,   0.40000,
,,,-00.000046200000,   0.20000,
,,,-00.000046100000,   0.60000,
,,,-00.000046000000,   0.60000,
,,,-00.000045900000,   0.40000,
,,,-00.000045800000,   0.20000,
,,,-00.000045700000,   0.40000,
,,,-00.000045600000,   0.40000,
,,,-00.000045500000,   0.20000,
,,,-00.000045400000,   0.40000,
,,,-00.000045300000,   0.20000,
,,,-00.000045200000,   0.00000,
,,,-00.000045100000,   0.00000,
,,,-00.000045000000,   0.40000,
,,,-00.000044900000,   0.40000,
,,,-00.000044800000,   0.40000,
,,,-00.000044700000,   0.20000,
,,,-00.000044600000,   0.20000,
,,,-00.000044500000,   0.00000,
,,,-00.000044400000,   0.00000,
,,,-00.000044300000,   0.40000,
,,,-00.000044200000,   0.00000,
,,,-00.000044100000,   0.40000,
,,,-00.000044000000,   0.40000,
,,,-00.000043900000,   0.40000,
,,,-00.000043800000,   0.20000,
,,,-00.000043700000,   0.20000,
,,,-00.000043600000,   0.20000,
,,,-00.000043500000,   0.20000,
,,,-00.000043400000,   0.20000,
,,,-00.000043300000,   0.40000,
,,,-00.000043200000,   0.40000,
,,,-00.000043100000,   0.40000,
,,,-00.000043000000,   0.20000,
,,,-00.000042900000,   0.20000,
,,,-00.000042800000,   0.40000,
,,,-00.000042700000,   0.20000,
,,,-00.000042600000,   0.40000,
,,,-00.000042500000,   0.40000,
,,,-00.000042400000,   0.20000,
,,,-00.000042300000,   0.40000,
,,,-00.000042200000,   0.20000,
,,,-00.000042100000,   0.20000,
,,,-00.000042000000,   0.40000,
,,,-00.000041900000,   0.40000,
,,,-00.000041800000,   0.40000,
,,,-00.000041700000,   0.20000,
,,,-00.000041600000,   0.20000,
,,,-00.000041500000,   0.00000,
,,,-00.000041400000,   0.20000,
,,,-00.000041300000,   0.20000,
,,,-00.000041200000,   0.20000,
,,,-00.000041100000,   0.40000,
,,,-00.000041000000,   0.20000,
,,,-00.000040900000,   0.20000,
,,,-00.000040800000,   0.20000,
,,,-00.000040700000,   0.40000,
,,,-00.000040600000,   0.20000,
,,,-00.000040500000,   0.00000,
,,,-00.000040400000,   0.20000,
,,,-00.000040300000,   0.20000,
,,,-00.000040200000,   0.20000,
,,,-00.000040100000,   0.20000,
,,,-00.000040000000,   0.20000,
,,,-00.000039900000,   0.20000,
,,,-00.000039800000,   0.40000,
,,,-00.000039700000,   0.00000,
,,,-00.000039600000,   0.00000,
,,,-00.000039500000,   0.20000,
,,,-00.000039400000,   0.00000,
,,,-00.000039300000,   0.20000,
,,,-00.000039200000,   0.20000,
,,,-00.000039100000,   0.00000,
,,,-00.000039000000,   0.00000,
,,,-00.000038900000,   0.40000,
