Informe/Scripts Graficos MATLAB/Ensayo Sistema Completo/F0028CH1.CSV

Record Length,2.500000e+03,,   0.015971000000,  -0.40000,
Sample Interval,4.000000e-08,,   0.015971040000,   0.00000,
Trigger Point,-3.992750000000e+05,,   0.015971080000,   0.00000,
,,,   0.015971120000,  -0.40000,
,,,   0.015971160000,   0.00000,
,,,   0.015971200000,   0.00000,
Source,CH1,,   0.015971240000,   0.00000,
Vertical Units,V,,   0.015971280000,  -0.40000,
Vertical Scale,1.000000e+01,,   0.015971320000,  -0.40000,
Vertical Offset,0.000000e+00,,   0.015971360000,   0.00000,
Horizontal Units,s,,   0.015971400000,   0.00000,
Horizontal Scale,1.000000e-05,,   0.015971440000,   0.00000,
Pt Fmt,Y,,   0.015971480000,   0.00000,
Yzero,0.000000e+00,,   0.015971520000,  -0.40000,
Probe Atten,1.000000e+01,,   0.015971560000,   0.00000,
Model Number,TBS1102B,,   0.015971600000,   0.40000,
Serial Number,C033696,,   0.015971640000,  -0.40000,
Firmware Version,FV:v4.06,,   0.015971680000,   0.00000,
,,,0.015971720000,   0.00000,
,,,0.015971760000,  -0.40000,
,,,0.015971800000,  -0.40000,
,,,0.015971840000,   0.40000,
,,,0.015971880000,   0.40000,
,,,0.015971920000,   0.00000,
,,,0.015971960000,   0.00000,
,,,0.015972000000,   0.00000,
,,,0.015972040000,   0.00000,
,,,0.015972080000,   0.00000,
,,,0.015972120000,   0.00000,
,,,0.015972160000,   0.00000,
,,,0.015972200000,   0.40000,
,,,0.015972240000,  -0.40000,
,,,0.015972280000,  -0.40000,
,,,0.015972320000,  -0.40000,
,,,0.015972360000,   0.00000,
,,,0.015972400000,   0.00000,
,,,0.015972440000,   0.00000,
,,,0.015972480000,   0.00000,
,,,0.015972520000,   0.00000,
,,,0.015972560000,  -0.40000,
,,,0.015972600000,   0.00000,
,,,0.015972640000,   0.00000,
,,,0.015972680000,  -0.40000,
,,,0.015972720000,   0.00000,
,,,0.015972760000,   0.00000,
,,,0.015972800000,  -0.40000,
,,,0.015972840000,  -0.40000,
,,,0.015972880000,  -0.40000,
,,,0.015972920000,   0.00000,
,,,0.015972960000,  -0.40000,
,,,0.015973000000,   0.00000,
,,,0.015973040000,   0.80000,
,,,0.015973080000,  -0.40000,
,,,0.015973120000,  -0.40000,
,,,0.015973160000,  -0.40000,
,,,0.015973200000,   0.00000,
,,,0.015973240000,  -0.40000,
,,,0.015973280000,   0.00000,
,,,0.015973320000,   0.00000,
,,,0.015973360000,   0.00000,
,,,0.015973400000,  -0.40000,
,,,0.015973440000,  -0.40000,
,,,0.015973480000,   0.00000,
,,,0.015973520000,   0.00000,
,,,0.015973560000,   0.00000,
,,,0.015973600000,   0.00000,
,,,0.015973640000,   0.00000,
,,,0.015973680000,   0.00000,
,,,0.015973720000,   0.00000,
,,,0.015973760000,  -0.40000,
,,,0.015973800000,   0.00000,
,,,0.015973840000,   0.00000,
,,,0.015973880000,   0.00000,
,,,0.015973920000,   0.00000,
,,,0.015973960000,  -0.40000,
,,,0.015974000000,   0.00000,
,,,0.015974040000,   0.00000,
,,,0.015974080000,  -0.40000,
,,,0.015974120000,  -0.40000,
,,,0.015974160000,   0.00000,
,,,0.015974200000,   0.00000,
,,,0.015974240000,   0.00000,
,,,0.015974280000,   0.00000,
,,,0.015974320000,   0.00000,
,,,0.015974360000,  -0.40000,
,,,0.015974400000,  -0.40000,
,,,0.015974440000,   0.00000,
,,,0.015974480000,   0.00000,
,,,0.015974520000,  -0.40000,
,,,0.015974560000,   0.00000,
,,,0.015974600000,  -0.40000,
,,,0.015974640000,  -0.40000,
,,,0.015974680000,  -0.40000,
,,,0.015974720000,  -0.40000,
,,,0.015974760000,  -0.40000,
,,,0.015974800000,   0.40000,
,,,0.015974840000,   0.00000,
,,,0.015974880000,   0.00000,
,,,0.015974920000,   0.00000,
,,,0.015974960000,   0.00000,
,,,0.015975000000,   0.00000,
,,,0.015975040000,   0.40000,
,,,0.015975080000,   0.00000,
,,,0.015975120000,  -0.40000,
,,,0.015975160000,   0.00000,
,,,0.015975200000,   0.00000,
,,,0.015975240000,  -0.40000,
,,,0.015975280000,   0.00000,
,,,0.015975320000,  -0.40000,
,,,0.015975360000,   0.00000,
,,,0.015975400000,   0.00000,
,,,0.015975440000,   0.00000,
,,,0.015975480000,   0.40000,
,,,0.015975520000,   0.00000,
,,,0.015975560000,   0.00000,
,,,0.015975600000,  -0.40000,
,,,0.015975640000,   0.40000,
,,,0.015975680000,  -0.40000,
,,,0.015975720000,   0.00000,
,,,0.015975760000,   0.40000,
,,,0.015975800000,   0.00000,
,,,0.015975840000,   0.00000,
,,,0.015975880000,   0.00000,
,,,0.015975920000,   0.00000,
,,,0.015975960000,   0.00000,
,,,0.015976000000,  -0.40000,
,,,0.015976040000,   0.00000,
,,,0.015976080000,   0.00000,
,,,0.015976120000,  -0.40000,
,,,0.015976160000,   0.00000,
,,,0.015976200000,  -0.40000,
,,,0.015976240000,   0.00000,
,,,0.015976280000,  -0.40000,
,,,0.015976320000,   0.00000,
,,,0.015976360000,  -0.40000,
,,,0.015976400000,   0.00000,
,,,0.015976440000,   0.00000,
,,,0.015976480000,  -0.40000,
,,,0.015976520000,   0.00000,
,,,0.015976560000,  -0.40000,
,,,0.015976600000,  -0.40000,
,,,0.015976640000,   0.00000,
,,,0.015976680000,  -0.40000,
,,,0.015976720000,  -0.40000,
,,,0.015976760000,  -0.40000,
,,,0.015976800000,   0.00000,
,,,0.015976840000,  -0.40000,
,,,0.015976880000,   0.00000,
,,,0.015976920000,   0.00000,
,,,0.015976960000,  -0.40000,
,,,0.015977000000,   0.00000,
,,,0.015977040000,   0.00000,
,,,0.015977080000,   0.00000,
,,,0.015977120000,   0.00000,
,,,0.015977160000,  -0.40000,
,,,0.015977200000,  -0.40000,
,,,0.015977240000,   0.00000,
,,,0.015977280000,   0.00000,
,,,0.015977320000,  -0.80000,
,,,0.015977360000,  -0.40000,
,,,0.015977400000,   0.00000,
,,,0.015977440000,  -1.60000,
,,,0.015977480000,  -1.60000,
,,,0.015977520000,   0.00000,
,,,0.015977560000,   0.80000,
,,,0.015977600000,   0.40000,
,,,0.015977640000,   0.40000,
,,,0.015977680000,  -0.40000,
,,,0.015977720000, -29.60000,
,,,0.015977760000, -24.40000,
,,,0.015977800000, -30.00000,
,,,0.015977840000, -35.20000,
,,,0.015977880000, -31.20000,
,,,0.015977920000, -28.80000,
,,,0.015977960000, -30.80000,
,,,0.015978000000, -30.40000,
,,,0.015978040000, -29.60000,
,,,0.015978080000, -30.00000,
,,,0.015978120000, -31.60000,
,,,0.015978160000, -31.60000,
,,,0.015978200000, -29.20000,
,,,0.015978240000, -28.40000,
,,,0.015978280000, -30.40000,
,,,0.015978320000, -31.60000,
,,,0.015978360000, -31.60000,
,,,0.015978400000, -30.00000,
,,,0.015978440000, -29.60000,
,,,0.015978480000, -29.60000,
,,,0.015978520000, -30.40000,
,,,0.015978560000, -31.60000,
,,,0.015978600000, -31.60000,
,,,0.015978640000, -29.60000,
,,,0.015978680000, -28.40000,
,,,0.015978720000, -29.60000,
,,,0.015978760000, -32.00000,
,,,0.015978800000, -31.60000,
,,,0.015978840000, -30.40000,
,,,0.015978880000, -28.80000,
,,,0.015978920000, -30.00000,
,,,0.015978960000, -30.80000,
,,,0.015979000000, -30.40000,
,,,0.015979040000, -30.00000,
,,,0.015979080000, -29.60000,
,,,0.015979120000, -30.00000,
,,,0.015979160000, -30.40000,
,,,0.015979200000, -29.60000,
,,,0.015979240000, -30.80000,
,,,0.015979280000, -30.80000,
,,,0.015979320000, -30.00000,
,,,0.015979360000, -29.20000,
,,,0.015979400000, -29.60000,
,,,0.015979440000, -30.40000,
,,,0.015979480000, -30.80000,
,,,0.015979520000, -30.80000,
,,,0.015979560000, -30.00000,
,,,0.015979600000, -30.00000,
,,,0.015979640000, -29.60000,
,,,0.015979680000, -30.00000,
,,,0.015979720000, -30.80000,
,,,0.015979760000, -30.80000,
,,,0.015979800000, -30.40000,
,,,0.015979840000, -30.00000,
,,,0.015979880000, -30.00000,
,,,0.015979920000, -30.00000,
,,,0.015979960000, -30.40000,
,,,0.015980000000, -30.00000,
,,,0.015980040000, -30.00000,
,,,0.015980080000, -30.00000,
,,,0.015980120000, -29.60000,
,,,0.015980160000, -30.00000,
,,,0.015980200000, -30.00000,
,,,0.015980240000, -30.40000,
,,,0.015980280000, -30.00000,
,,,0.015980320000, -30.40000,
,,,0.015980360000, -29.60000,
,,,0.015980400000, -30.40000,
,,,0.015980440000, -30.40000,
,,,0.015980480000, -30.00000,
,,,0.015980520000, -30.00000,
,,,0.015980560000, -30.00000,
,,,0.015980600000, -30.00000,
,,,0.015980640000, -30.00000,
,,,0.015980680000, -30.40000,
,,,0.015980720000, -30.00000,
,,,0.015980760000, -29.60000,
,,,0.015980800000, -29.60000,
,,,0.015980840000, -30.00000,
,,,0.015980880000, -30.40000,
,,,0.015980920000, -30.00000,
,,,0.015980960000, -29.60000,
,,,0.015981000000, -30.00000,
,,,0.015981040000, -29.60000,
,,,0.015981080000, -30.00000,
,,,0.015981120000, -30.00000,
,,,0.015981160000, -30.00000,
,,,0.015981200000, -30.00000,
,,,0.015981240000, -30.00000,
,,,0.015981280000, -29.60000,
,,,0.015981320000, -30.00000,
,,,0.015981360000, -30.00000,
,,,0.015981400000, -30.40000,
,,,0.015981440000, -30.40000,
,,,0.015981480000, -30.00000,
,,,0.015981520000, -30.40000,
,,,0.015981560000, -30.00000,
,,,0.015981600000, -30.00000,
,,,0.015981640000, -30.00000,
,,,0.015981680000, -29.60000,
,,,0.015981720000, -30.00000,
,,,0.015981760000, -30.00000,
,,,0.015981800000, -30.40000,
,,,0.015981840000, -30.40000,
,,,0.015981880000, -30.40000,
,,,0.015981920000, -30.40000,
,,,0.015981960000, -30.00000,
,,,0.015982000000, -29.60000,
,,,0.015982040000, -30.00000,
,,,0.015982080000, -30.00000,
,,,0.015982120000, -30.00000,
,,,0.015982160000, -30.00000,
,,,0.015982200000, -30.00000,
,,,0.015982240000, -29.60000,
,,,0.015982280000, -30.00000,
,,,0.015982320000, -30.40000,
,,,0.015982360000, -30.40000,
,,,0.015982400000, -30.40000,
,,,0.015982440000, -29.60000,
,,,0.015982480000, -30.00000,
,,,0.015982520000, -30.00000,
,,,0.015982560000, -30.00000,
,,,0.015982600000, -30.40000,
,,,0.015982640000, -30.40000,
,,,0.015982680000, -30.40000,
,,,0.015982720000, -29.60000,
,,,0.015982760000, -29.60000,
,,,0.015982800000, -29.60000,
,,,0.015982840000, -30.00000,
,,,0.015982880000, -30.40000,
,,,0.015982920000, -30.00000,
,,,0.015982960000, -30.00000,
,,,0.015983000000, -29.60000,
,,,0.015983040000, -30.00000,
,,,0.015983080000, -30.00000,
,,,0.015983120000, -30.00000,
,,,0.015983160000, -30.00000,
,,,0.015983200000, -29.60000,
,,,0.015983240000, -30.00000,
,,,0.015983280000, -30.00000,
,,,0.015983320000, -30.40000,
,,,0.015983360000, -30.00000,
,,,0.015983400000, -30.00000,
,,,0.015983440000, -30.00000,
,,,0.015983480000, -30.40000,
,,,0.015983520000, -30.00000,
,,,0.015983560000, -30.00000,
,,,0.015983600000, -30.00000,
,,,0.015983640000, -30.00000,
,,,0.015983680000, -29.60000,
,,,0.015983720000, -30.00000,
,,,0.015983760000, -30.00000,
,,,0.015983800000, -30.00000,
,,,0.015983840000, -30.00000,
,,,0.015983880000, -29.60000,
,,,0.015983920000, -29.60000,
,,,0.015983960000, -30.00000,
,,,0.015984000000, -30.00000,
,,,0.015984040000, -30.00000,
,,,0.015984080000, -29.60000,
,,,0.015984120000, -30.00000,
,,,0.015984160000, -30.00000,
,,,0.015984200000, -30.00000,
,,,0.015984240000, -30.00000,
,,,0.015984280000, -30.40000,
,,,0.015984320000, -30.00000,
,,,0.015984360000, -30.00000,
,,,0.015984400000, -30.00000,
,,,0.015984440000, -30.00000,
,,,0.015984480000, -30.00000,
,,,0.015984520000, -30.00000,
,,,0.015984560000, -30.00000,
,,,0.015984600000, -30.00000,
,,,0.015984640000, -29.60000,
,,,0.015984680000, -30.00000,
,,,0.015984720000, -30.40000,
,,,0.015984760000, -30.00000,
,,,0.015984800000, -30.40000,
,,,0.015984840000, -30.00000,
,,,0.015984880000, -30.00000,
,,,0.015984920000, -29.60000,
,,,0.015984960000, -30.00000,
,,,0.015985000000, -30.00000,
,,,0.015985040000, -30.40000,
,,,0.015985080000, -30.00000,
,,,0.015985120000, -30.00000,
,,,0.015985160000, -29.60000,
,,,0.015985200000, -30.00000,
,,,0.015985240000, -30.00000,
,,,0.015985280000, -30.00000,
,,,0.015985320000, -30.00000,
,,,0.015985360000, -30.00000,
,,,0.015985400000, -30.00000,
,,,0.015985440000, -30.00000,
,,,0.015985480000, -30.00000,
,,,0.015985520000, -30.00000,
,,,0.015985560000, -29.60000,
,,,0.015985600000, -29.60000,
,,,0.015985640000, -29.60000,
,,,0.015985680000, -30.40000,
,,,0.015985720000, -29.60000,
,,,0.015985760000, -30.00000,
,,,0.015985800000, -30.00000,
,,,0.015985840000, -30.00000,
,,,0.015985880000, -30.00000,
,,,0.015985920000, -29.60000,
,,,0.015985960000, -30.00000,
,,,0.015986000000, -30.00000,
,,,0.015986040000, -30.00000,
,,,0.015986080000, -30.00000,
,,,0.015986120000, -30.00000,
,,,0.015986160000, -30.00000,
,,,0.015986200000, -29.60000,
,,,0.015986240000, -29.60000,
,,,0.015986280000, -29.60000,
,,,0.015986320000, -30.00000,
,,,0.015986360000, -29.60000,
,,,0.015986400000, -30.00000,
,,,0.015986440000, -30.00000,
,,,0.015986480000, -30.00000,
,,,0.015986520000, -29.60000,
,,,0.015986560000, -30.00000,
,,,0.015986600000, -30.00000,
,,,0.015986640000, -30.00000,
,,,0.015986680000, -30.00000,
,,,0.015986720000, -29.60000,
,,,0.015986760000, -30.00000,
,,,0.015986800000, -30.00000,
,,,0.015986840000, -30.00000,
,,,0.015986880000, -29.60000,
,,,0.015986920000, -29.20000,
,,,0.015986960000, -30.00000,
,,,0.015987000000, -30.00000,
,,,0.015987040000, -30.00000,
,,,0.015987080000, -30.00000,
,,,0.015987120000, -30.40000,
,,,0.015987160000, -30.00000,
,,,0.015987200000, -30.00000,
,,,0.015987240000, -30.00000,
,,,0.015987280000, -30.00000,
,,,0.015987320000, -30.00000,
,,,0.015987360000, -30.40000,
,,,0.015987400000, -29.60000,
,,,0.015987440000, -30.00000,
,,,0.015987480000, -29.60000,
,,,0.015987520000, -30.00000,
,,,0.015987560000, -30.00000,
,,,0.015987600000, -30.00000,
,,,0.015987640000, -30.00000,
,,,0.015987680000, -30.00000,
,,,0.015987720000, -30.00000,
,,,0.015987760000, -29.60000,
,,,0.015987800000, -30.00000,
,,,0.015987840000, -30.00000,
,,,0.015987880000, -30.00000,
,,,0.015987920000, -30.00000,
,,,0.015987960000, -29.60000,
,,,0.015988000000, -29.60000,
,,,0.015988040000, -29.20000,
,,,0.015988080000, -30.00000,
,,,0.015988120000, -29.20000,
,,,0.015988160000, -29.60000,
,,,0.015988200000, -29.60000,
,,,0.015988240000, -29.60000,
,,,0.015988280000, -30.00000,
,,,0.015988320000, -30.00000,
,,,0.015988360000, -29.20000,
,,,0.015988400000, -30.00000,
,,,0.015988440000, -29.60000,
,,,0.015988480000, -30.00000,
,,,0.015988520000, -29.60000,
,,,0.015988560000, -30.00000,
,,,0.015988600000, -30.40000,
,,,0.015988640000, -30.40000,
,,,0.015988680000, -30.00000,
,,,0.015988720000, -29.60000,
,,,0.015988760000, -30.00000,
,,,0.015988800000, -30.00000,
,,,0.015988840000, -30.00000,
,,,0.015988880000, -29.60000,
,,,0.015988920000, -30.40000,
,,,0.015988960000, -30.00000,
,,,0.015989000000, -30.00000,
,,,0.015989040000, -30.00000,
,,,0.015989080000, -29.60000,
,,,0.015989120000, -29.60000,
,,,0.015989160000, -29.60000,
,,,0.015989200000, -30.00000,
,,,0.015989240000, -30.00000,
,,,0.015989280000, -29.60000,
,,,0.015989320000, -30.00000,
,,,0.015989360000, -30.00000,
,,,0.015989400000, -30.00000,
,,,0.015989440000, -30.00000,
,,,0.015989480000, -29.60000,
,,,0.015989520000, -30.00000,
,,,0.015989560000, -29.60000,
,,,0.015989600000, -29.60000,
,,,0.015989640000, -30.00000,
,,,0.015989680000, -29.20000,
,,,0.015989720000, -30.00000,
,,,0.015989760000, -29.60000,
,,,0.015989800000, -29.60000,
,,,0.015989840000, -30.00000,
,,,0.015989880000, -29.60000,
,,,0.015989920000, -10.40000,
,,,0.015989960000,  -0.40000,
,,,0.015990000000,   1.60000,
,,,0.015990040000,   1.20000,
,,,0.015990080000,   1.60000,
,,,0.015990120000,   1.20000,
,,,0.015990160000,   0.00000,
,,,0.015990200000,   0.80000,
,,,0.015990240000,   0.80000,
,,,0.015990280000,   0.40000,
,,,0.015990320000,   0.80000,
,,,0.015990360000,   0.00000,
,,,0.015990400000,   0.00000,
,,,0.015990440000,   0.40000,
,,,0.015990480000,   0.80000,
,,,0.015990520000,   0.40000,
,,,0.015990560000,  -0.40000,
,,,0.015990600000,   0.40000,
,,,0.015990640000,   0.00000,
,,,0.015990680000,   0.80000,
,,,0.015990720000,   0.40000,
,,,0.015990760000,   0.40000,
,,,0.015990800000,   0.00000,
,,,0.015990840000,  -0.40000,
,,,0.015990880000,   0.40000,
,,,0.015990920000,   0.40000,
,,,0.015990960000,   0.40000,
,,,0.015991000000,   0.00000,
,,,0.015991040000,   0.40000,
,,,0.015991080000,  -0.40000,
,,,0.015991120000,   0.00000,
,,,0.015991160000,   0.40000,
,,,0.015991200000,   0.00000,
,,,0.015991240000,   0.40000,
,,,0.015991280000,   0.00000,
,,,0.015991320000,   0.00000,
,,,0.015991360000,   0.00000,
,,,0.015991400000,   0.00000,
,,,0.015991440000,   0.40000,
,,,0.015991480000,   0.00000,
,,,0.015991520000,   0.00000,
,,,0.015991560000,   0.00000,
,,,0.015991600000,   0.40000,
,,,0.015991640000,   0.40000,
,,,0.015991680000,   0.40000,
,,,0.015991720000,   0.00000,
,,,0.015991760000,   0.00000,
,,,0.015991800000,   0.00000,
,,,0.015991840000,   0.00000,
,,,0.015991880000,   0.40000,
,,,0.015991920000,   0.40000,
,,,0.015991960000,   0.00000,
,,,0.015992000000,   0.40000,
,,,0.015992040000,   0.00000,
,,,0.015992080000,   0.40000,
,,,0.015992120000,   0.40000,
,,,0.015992160000,  -0.40000,
,,,0.015992200000,  -0.40000,
,,,0.015992240000,   0.00000,
,,,0.015992280000,   0.00000,
,,,0.015992320000,   0.40000,
,,,0.015992360000,   0.00000,
,,,0.015992400000,   0.40000,
,,,0.015992440000,   0.00000,
,,,0.015992480000,  -0.40000,
,,,0.015992520000,  -0.40000,
,,,0.015992560000,   0.00000,
,,,0.015992600000,   0.00000,
,,,0.015992640000,   0.00000,
,,,0.015992680000,   0.40000,
,,,0.015992720000,  -0.40000,
,,,0.015992760000,   0.00000,
,,,0.015992800000,   0.00000,
,,,0.015992840000,   0.40000,
,,,0.015992880000,   0.00000,
,,,0.015992920000,   0.00000,
,,,0.015992960000,   0.40000,
,,,0.015993000000,   0.00000,
,,,0.015993040000,   0.00000,
,,,0.015993080000,   0.00000,
,,,0.015993120000,  -0.40000,
,,,0.015993160000,   0.00000,
,,,0.015993200000,   0.00000,
,,,0.015993240000,   0.00000,
,,,0.015993280000,   0.40000,
,,,0.015993320000,  -0.40000,
,,,0.015993360000,   0.00000,
,,,0.015993400000,   0.40000,
,,,0.015993440000,   0.00000,
,,,0.015993480000,   0.00000,
,,,0.015993520000,   0.40000,
,,,0.015993560000,   0.00000,
,,,0.015993600000,   0.00000,
,,,0.015993640000,   0.00000,
,,,0.015993680000,   0.00000,
,,,0.015993720000,  -0.40000,
,,,0.015993760000,   0.00000,
,,,0.015993800000,   0.00000,
,,,0.015993840000,   0.00000,
,,,0.015993880000,   0.00000,
,,,0.015993920000,  -0.40000,
,,,0.015993960000,   0.00000,
,,,0.015994000000,   0.00000,
,,,0.015994040000,   0.00000,
,,,0.015994080000,   0.40000,
,,,0.015994120000,   0.00000,
,,,0.015994160000,  -0.40000,
,,,0.015994200000,   0.00000,
,,,0.015994240000,   0.00000,
,,,0.015994280000,  -0.40000,
,,,0.015994320000,   0.00000,
,,,0.015994360000,   0.00000,
,,,0.015994400000,  -0.40000,
,,,0.015994440000,   0.00000,
,,,0.015994480000,   0.00000,
,,,0.015994520000,  -0.40000,
,,,0.015994560000,   0.00000,
,,,0.015994600000,   0.00000,
,,,0.015994640000,   0.40000,
,,,0.015994680000,   0.40000,
,,,0.015994720000,   0.00000,
,,,0.015994760000,   0.00000,
,,,0.015994800000,   0.40000,
,,,0.015994840000,   0.00000,
,,,0.015994880000,   0.00000,
,,,0.015994920000,  -0.40000,
,,,0.015994960000,  -0.40000,
,,,0.015995000000,   0.00000,
,,,0.015995040000,   0.40000,
,,,0.015995080000,   0.00000,
,,,0.015995120000,   0.00000,
,,,0.015995160000,  -0.40000,
,,,0.015995200000,   0.00000,
,,,0.015995240000,   0.00000,
,,,0.015995280000,  -0.40000,
,,,0.015995320000,   0.00000,
,,,0.015995360000,   0.00000,
,,,0.015995400000,   0.00000,
,,,0.015995440000,   0.00000,
,,,0.015995480000,   0.00000,
,,,0.015995520000,   0.00000,
,,,0.015995560000,  -0.40000,
,,,0.015995600000,   0.00000,
,,,0.015995640000,  -0.40000,
,,,0.015995680000,   0.00000,
,,,0.015995720000,   0.00000,
,,,0.015995760000,   0.00000,
,,,0.015995800000,   0.00000,
,,,0.015995840000,   0.00000,
,,,0.015995880000,   0.40000,
,,,0.015995920000,  -0.40000,
,,,0.015995960000,   0.00000,
,,,0.015996000000,   0.00000,
,,,0.015996040000,  -0.40000,
,,,0.015996080000,   0.00000,
,,,0.015996120000,   0.00000,
,,,0.015996160000,   0.00000,
,,,0.015996200000,   0.00000,
,,,0.015996240000,   0.00000,
,,,0.015996280000,  -0.40000,
,,,0.015996320000,   0.00000,
,,,0.015996360000,  -0.40000,
,,,0.015996400000,  -0.40000,
,,,0.015996440000,  -0.40000,
,,,0.015996480000,  -0.40000,
,,,0.015996520000,  -0.40000,
,,,0.015996560000,   0.00000,
,,,0.015996600000,   0.40000,
,,,0.015996640000,  -0.40000,
,,,0.015996680000,  -0.40000,
,,,0.015996720000,   0.00000,
,,,0.015996760000,  -0.40000,
,,,0.015996800000,   0.00000,
,,,0.015996840000,   0.00000,
,,,0.015996880000,  -0.40000,
,,,0.015996920000,   0.00000,
,,,0.015996960000,  -0.40000,
,,,0.015997000000,   0.00000,
,,,0.015997040000,  -0.40000,
,,,0.015997080000,   0.00000,
,,,0.015997120000,  -0.40000,
