Capturas y Ensayos/Capturas Osciloscopio/Pruebas Sistema Completo - Con Carga/ALL0019/F0019CH1.CSV

Record Length,2.500000e+03,,   0.015968400000,  52.00000,
Sample Interval,4.000000e-08,,   0.015968440000,  52.80000,
Trigger Point,-3.992100000000e+05,,   0.015968480000,  52.80000,
,,,   0.015968520000,  52.00000,
,,,   0.015968560000,  52.80000,
,,,   0.015968600000,  52.80000,
Source,CH1,,   0.015968640000,  52.00000,
Vertical Units,V,,   0.015968680000,  52.80000,
Vertical Scale,2.000000e+01,,   0.015968720000,  52.00000,
Vertical Offset,0.000000e+00,,   0.015968760000,  52.80000,
Horizontal Units,s,,   0.015968800000,  52.00000,
Horizontal Scale,1.000000e-05,,   0.015968840000,  52.80000,
Pt Fmt,Y,,   0.015968880000,  52.00000,
Yzero,0.000000e+00,,   0.015968920000,  52.00000,
Probe Atten,1.000000e+01,,   0.015968960000,  52.00000,
Model Number,TBS1102B,,   0.015969000000,  52.80000,
Serial Number,C033696,,   0.015969040000,  52.00000,
Firmware Version,FV:v4.06,,   0.015969080000,  52.80000,
,,,0.015969120000,  52.00000,
,,,0.015969160000,  52.80000,
,,,0.015969200000,  52.00000,
,,,0.015969240000,  52.00000,
,,,0.015969280000,  52.00000,
,,,0.015969320000,  52.80000,
,,,0.015969360000,  52.00000,
,,,0.015969400000,  51.20000,
,,,0.015969440000,  52.80000,
,,,0.015969480000,  52.00000,
,,,0.015969520000,  52.00000,
,,,0.015969560000,  52.00000,
,,,0.015969600000,  52.00000,
,,,0.015969640000,  52.80000,
,,,0.015969680000,  51.20000,
,,,0.015969720000,  52.00000,
,,,0.015969760000,  52.80000,
,,,0.015969800000,  52.00000,
,,,0.015969840000,  52.80000,
,,,0.015969880000,  51.20000,
,,,0.015969920000,  52.80000,
,,,0.015969960000,  52.00000,
,,,0.015970000000,  52.00000,
,,,0.015970040000,  52.00000,
,,,0.015970080000,  52.00000,
,,,0.015970120000,  52.00000,
,,,0.015970160000,  52.80000,
,,,0.015970200000,  52.00000,
,,,0.015970240000,  52.00000,
,,,0.015970280000,  52.00000,
,,,0.015970320000,  52.00000,
,,,0.015970360000,  52.80000,
,,,0.015970400000,  52.00000,
,,,0.015970440000,  52.80000,
,,,0.015970480000,  52.00000,
,,,0.015970520000,  52.00000,
,,,0.015970560000,  51.20000,
,,,0.015970600000,  52.00000,
,,,0.015970640000,  52.00000,
,,,0.015970680000,  52.80000,
,,,0.015970720000,  52.80000,
,,,0.015970760000,  52.80000,
,,,0.015970800000,  52.00000,
,,,0.015970840000,  52.00000,
,,,0.015970880000,  52.00000,
,,,0.015970920000,  52.80000,
,,,0.015970960000,  52.00000,
,,,0.015971000000,  51.20000,
,,,0.015971040000,  52.00000,
,,,0.015971080000,  52.80000,
,,,0.015971120000,  52.00000,
,,,0.015971160000,  52.00000,
,,,0.015971200000,  52.00000,
,,,0.015971240000,  52.00000,
,,,0.015971280000,  52.80000,
,,,0.015971320000,  52.00000,
,,,0.015971360000,  52.00000,
,,,0.015971400000,  52.80000,
,,,0.015971440000,  52.00000,
,,,0.015971480000,  52.80000,
,,,0.015971520000,  52.00000,
,,,0.015971560000,  52.00000,
,,,0.015971600000,  52.80000,
,,,0.015971640000,  51.20000,
,,,0.015971680000,  52.80000,
,,,0.015971720000,  52.80000,
,,,0.015971760000,  52.00000,
,,,0.015971800000,  51.20000,
,,,0.015971840000,  52.00000,
,,,0.015971880000,  52.00000,
,,,0.015971920000,  52.00000,
,,,0.015971960000,  52.00000,
,,,0.015972000000,  52.00000,
,,,0.015972040000,  52.00000,
,,,0.015972080000,  52.00000,
,,,0.015972120000,  52.80000,
,,,0.015972160000,  51.20000,
,,,0.015972200000,  52.80000,
,,,0.015972240000,  52.80000,
,,,0.015972280000,  51.20000,
,,,0.015972320000,  52.80000,
,,,0.015972360000,  52.00000,
,,,0.015972400000,  52.00000,
,,,0.015972440000,  52.80000,
,,,0.015972480000,  52.00000,
,,,0.015972520000,  52.00000,
,,,0.015972560000,  52.80000,
,,,0.015972600000,  52.80000,
,,,0.015972640000,  52.00000,
,,,0.015972680000,  52.00000,
,,,0.015972720000,  52.80000,
,,,0.015972760000,  52.00000,
,,,0.015972800000,  52.80000,
,,,0.015972840000,  52.00000,
,,,0.015972880000,  52.80000,
,,,0.015972920000,  51.20000,
,,,0.015972960000,  52.00000,
,,,0.015973000000,  52.00000,
,,,0.015973040000,  52.00000,
,,,0.015973080000,  52.00000,
,,,0.015973120000,  52.00000,
,,,0.015973160000,  52.00000,
,,,0.015973200000,  52.00000,
,,,0.015973240000,  52.00000,
,,,0.015973280000,  52.00000,
,,,0.015973320000,  52.00000,
,,,0.015973360000,  52.00000,
,,,0.015973400000,  52.80000,
,,,0.015973440000,  52.00000,
,,,0.015973480000,  51.20000,
,,,0.015973520000,  52.00000,
,,,0.015973560000,  52.80000,
,,,0.015973600000,  52.00000,
,,,0.015973640000,  52.00000,
,,,0.015973680000,  52.00000,
,,,0.015973720000,  52.00000,
,,,0.015973760000,  52.00000,
,,,0.015973800000,  52.00000,
,,,0.015973840000,  52.00000,
,,,0.015973880000,  51.20000,
,,,0.015973920000,  52.00000,
,,,0.015973960000,  52.00000,
,,,0.015974000000,  52.00000,
,,,0.015974040000,  52.00000,
,,,0.015974080000,  52.00000,
,,,0.015974120000,  52.00000,
,,,0.015974160000,  51.20000,
,,,0.015974200000,  52.00000,
,,,0.015974240000,  52.00000,
,,,0.015974280000,  52.00000,
,,,0.015974320000,  52.80000,
,,,0.015974360000,  52.00000,
,,,0.015974400000,  52.00000,
,,,0.015974440000,  52.00000,
,,,0.015974480000,  52.80000,
,,,0.015974520000,  52.00000,
,,,0.015974560000,  51.20000,
,,,0.015974600000,  52.80000,
,,,0.015974640000,  52.00000,
,,,0.015974680000,  51.20000,
,,,0.015974720000,  52.00000,
,,,0.015974760000,  52.00000,
,,,0.015974800000,  52.00000,
,,,0.015974840000,  52.00000,
,,,0.015974880000,  52.80000,
,,,0.015974920000,  52.00000,
,,,0.015974960000,  52.00000,
,,,0.015975000000,  52.00000,
,,,0.015975040000,  52.00000,
,,,0.015975080000,  52.00000,
,,,0.015975120000,  52.00000,
,,,0.015975160000,  51.20000,
,,,0.015975200000,  52.80000,
,,,0.015975240000,  52.00000,
,,,0.015975280000,  52.00000,
,,,0.015975320000,  52.00000,
,,,0.015975360000,  52.00000,
,,,0.015975400000,  52.00000,
,,,0.015975440000,  52.00000,
,,,0.015975480000,  52.80000,
,,,0.015975520000,  51.20000,
,,,0.015975560000,  52.80000,
,,,0.015975600000,  51.20000,
,,,0.015975640000,  51.20000,
,,,0.015975680000,  52.00000,
,,,0.015975720000,  52.00000,
,,,0.015975760000,  52.00000,
,,,0.015975800000,  52.00000,
,,,0.015975840000,  52.00000,
,,,0.015975880000,  52.00000,
,,,0.015975920000,  51.20000,
,,,0.015975960000,  52.00000,
,,,0.015976000000,  52.00000,
,,,0.015976040000,  52.00000,
,,,0.015976080000,  52.00000,
,,,0.015976120000,  52.00000,
,,,0.015976160000,  52.80000,
,,,0.015976200000,  52.80000,
,,,0.015976240000,  52.00000,
,,,0.015976280000,  52.80000,
,,,0.015976320000,  51.20000,
,,,0.015976360000,  52.80000,
,,,0.015976400000,  52.00000,
,,,0.015976440000,  52.00000,
,,,0.015976480000,  52.80000,
,,,0.015976520000,  51.20000,
,,,0.015976560000,  52.80000,
,,,0.015976600000,  51.20000,
,,,0.015976640000,  52.00000,
,,,0.015976680000,  52.80000,
,,,0.015976720000,  52.80000,
,,,0.015976760000,  52.00000,
,,,0.015976800000,  52.00000,
,,,0.015976840000,  52.00000,
,,,0.015976880000,  52.00000,
,,,0.015976920000,  52.80000,
,,,0.015976960000,  52.80000,
,,,0.015977000000,  52.80000,
,,,0.015977040000,  52.80000,
,,,0.015977080000,  52.80000,
,,,0.015977120000,  51.20000,
,,,0.015977160000,  52.00000,
,,,0.015977200000,  52.00000,
,,,0.015977240000,  53.60000,
,,,0.015977280000,  52.80000,
,,,0.015977320000,  52.80000,
,,,0.015977360000,  52.80000,
,,,0.015977400000,  51.20000,
,,,0.015977440000,  52.00000,
,,,0.015977480000,  52.00000,
,,,0.015977520000,  53.60000,
,,,0.015977560000,  36.80000,
,,,0.015977600000,  -0.80000,
,,,0.015977640000,  -0.80000,
,,,0.015977680000,  -0.80000,
,,,0.015977720000,  -0.80000,
,,,0.015977760000,   0.80000,
,,,0.015977800000,  -0.80000,
,,,0.015977840000,   0.00000,
,,,0.015977880000,   0.00000,
,,,0.015977920000,   0.80000,
,,,0.015977960000,   0.00000,
,,,0.015978000000,   0.80000,
,,,0.015978040000,   0.00000,
,,,0.015978080000,  -0.80000,
,,,0.015978120000,   0.80000,
,,,0.015978160000,   0.00000,
,,,0.015978200000,   0.00000,
,,,0.015978240000,  -0.80000,
,,,0.015978280000,   0.00000,
,,,0.015978320000,   0.80000,
,,,0.015978360000,   0.00000,
,,,0.015978400000,   0.00000,
,,,0.015978440000,   0.00000,
,,,0.015978480000,   0.00000,
,,,0.015978520000,   0.00000,
,,,0.015978560000,   0.00000,
,,,0.015978600000,   0.00000,
,,,0.015978640000,   0.80000,
,,,0.015978680000,   0.80000,
,,,0.015978720000,   0.80000,
,,,0.015978760000,   0.80000,
,,,0.015978800000,   0.00000,
,,,0.015978840000,   0.00000,
,,,0.015978880000,   0.00000,
,,,0.015978920000,   0.00000,
,,,0.015978960000,   0.00000,
,,,0.015979000000,   0.00000,
,,,0.015979040000,   0.80000,
,,,0.015979080000,   0.00000,
,,,0.015979120000,   0.80000,
,,,0.015979160000,  -0.80000,
,,,0.015979200000,   0.00000,
,,,0.015979240000,   0.00000,
,,,0.015979280000,   0.80000,
,,,0.015979320000,   0.80000,
,,,0.015979360000,   0.80000,
,,,0.015979400000,   0.80000,
,,,0.015979440000,   0.00000,
,,,0.015979480000,   0.80000,
,,,0.015979520000,   0.80000,
,,,0.015979560000,   0.00000,
,,,0.015979600000,   0.00000,
,,,0.015979640000,   0.80000,
,,,0.015979680000,   0.00000,
,,,0.015979720000,   0.80000,
,,,0.015979760000,   0.80000,
,,,0.015979800000,   0.00000,
,,,0.015979840000,   0.80000,
,,,0.015979880000,   0.00000,
,,,0.015979920000,   0.00000,
,,,0.015979960000,   0.00000,
,,,0.015980000000,   0.00000,
,,,0.015980040000,   0.00000,
,,,0.015980080000,  -0.80000,
,,,0.015980120000,   0.00000,
,,,0.015980160000,   0.00000,
,,,0.015980200000,   0.80000,
,,,0.015980240000,   0.00000,
,,,0.015980280000,   0.00000,
,,,0.015980320000,   0.00000,
,,,0.015980360000,   0.00000,
,,,0.015980400000,   0.00000,
,,,0.015980440000,   0.00000,
,,,0.015980480000,   0.80000,
,,,0.015980520000,   0.00000,
,,,0.015980560000,   0.00000,
,,,0.015980600000,   0.00000,
,,,0.015980640000,   0.80000,
,,,0.015980680000,   0.80000,
,,,0.015980720000,   1.60000,
,,,0.015980760000,   0.80000,
,,,0.015980800000,   0.00000,
,,,0.015980840000,  -0.80000,
,,,0.015980880000,   0.80000,
,,,0.015980920000,   0.00000,
,,,0.015980960000,   0.00000,
,,,0.015981000000,   0.00000,
,,,0.015981040000,  -0.80000,
,,,0.015981080000,   0.00000,
,,,0.015981120000,   0.80000,
,,,0.015981160000,   0.00000,
,,,0.015981200000,   0.00000,
,,,0.015981240000,   0.00000,
,,,0.015981280000,   0.00000,
,,,0.015981320000,   0.80000,
,,,0.015981360000,   0.00000,
,,,0.015981400000,   0.00000,
,,,0.015981440000,   0.00000,
,,,0.015981480000,   0.00000,
,,,0.015981520000,   0.00000,
,,,0.015981560000,   0.00000,
,,,0.015981600000,   0.80000,
,,,0.015981640000,   0.00000,
,,,0.015981680000,   0.80000,
,,,0.015981720000,   0.00000,
,,,0.015981760000,   0.80000,
,,,0.015981800000,   0.80000,
,,,0.015981840000,   0.00000,
,,,0.015981880000,   0.80000,
,,,0.015981920000,   0.00000,
,,,0.015981960000,  -0.80000,
,,,0.015982000000,   0.00000,
,,,0.015982040000,  -0.80000,
,,,0.015982080000,   0.80000,
,,,0.015982120000,   0.00000,
,,,0.015982160000,   0.00000,
,,,0.015982200000,  -0.80000,
,,,0.015982240000,   0.00000,
,,,0.015982280000,   0.00000,
,,,0.015982320000,   0.00000,
,,,0.015982360000,   0.00000,
,,,0.015982400000,  -0.80000,
,,,0.015982440000,   0.00000,
,,,0.015982480000,   0.00000,
,,,0.015982520000,   0.00000,
,,,0.015982560000,   0.00000,
,,,0.015982600000,  -0.80000,
,,,0.015982640000,  -0.80000,
,,,0.015982680000,  -0.80000,
,,,0.015982720000,   0.00000,
,,,0.015982760000,  -0.80000,
,,,0.015982800000,   0.80000,
,,,0.015982840000,   0.00000,
,,,0.015982880000,   0.00000,
,,,0.015982920000,   0.00000,
,,,0.015982960000,  -0.80000,
,,,0.015983000000,   0.00000,
,,,0.015983040000,   0.00000,
,,,0.015983080000,   0.00000,
,,,0.015983120000,   0.00000,
,,,0.015983160000,   0.80000,
,,,0.015983200000,   0.00000,
,,,0.015983240000,   0.00000,
,,,0.015983280000,   0.00000,
,,,0.015983320000,   0.00000,
,,,0.015983360000,   0.00000,
,,,0.015983400000,   0.00000,
,,,0.015983440000,  -0.80000,
,,,0.015983480000,   0.80000,
,,,0.015983520000,  -0.80000,
,,,0.015983560000,   0.00000,
,,,0.015983600000,  -0.80000,
,,,0.015983640000,   0.00000,
,,,0.015983680000,   0.00000,
,,,0.015983720000,   0.00000,
,,,0.015983760000,  -0.80000,
,,,0.015983800000,   0.00000,
,,,0.015983840000,   0.00000,
,,,0.015983880000,  -0.80000,
,,,0.015983920000,   0.00000,
,,,0.015983960000,   0.00000,
,,,0.015984000000,   0.00000,
,,,0.015984040000,  -0.80000,
,,,0.015984080000,  -0.80000,
,,,0.015984120000,   0.80000,
,,,0.015984160000,  -0.80000,
,,,0.015984200000, -28.00000,
,,,0.015984240000, -68.80000,
,,,0.015984280000, -66.40000,
,,,0.015984320000, -64.80000,
,,,0.015984360000, -77.60000,
,,,0.015984400000, -69.60000,
,,,0.015984440000, -52.00000,
,,,0.015984480000, -62.40000,
,,,0.015984520000, -68.00000,
,,,0.015984560000, -40.00000,
,,,0.015984600000, -20.00000,
,,,0.015984640000, -28.00000,
,,,0.015984680000, -41.60000,
,,,0.015984720000, -52.80000,
,,,0.015984760000, -66.40000,
,,,0.015984800000, -72.00000,
,,,0.015984840000, -59.20000,
,,,0.015984880000, -52.00000,
,,,0.015984920000, -59.20000,
,,,0.015984960000, -60.80000,
,,,0.015985000000, -50.40000,
,,,0.015985040000, -42.40000,
,,,0.015985080000, -36.80000,
,,,0.015985120000, -36.00000,
,,,0.015985160000, -44.80000,
,,,0.015985200000, -59.20000,
,,,0.015985240000, -65.60000,
,,,0.015985280000, -58.40000,
,,,0.015985320000, -55.20000,
,,,0.015985360000, -56.80000,
,,,0.015985400000, -56.00000,
,,,0.015985440000, -54.40000,
,,,0.015985480000, -52.00000,
,,,0.015985520000, -44.80000,
,,,0.015985560000, -40.00000,
,,,0.015985600000, -42.40000,
,,,0.015985640000, -51.20000,
,,,0.015985680000, -57.60000,
,,,0.015985720000, -58.40000,
,,,0.015985760000, -57.60000,
,,,0.015985800000, -56.00000,
,,,0.015985840000, -54.40000,
,,,0.015985880000, -55.20000,
,,,0.015985920000, -54.40000,
,,,0.015985960000, -49.60000,
,,,0.015986000000, -44.80000,
,,,0.015986040000, -43.20000,
,,,0.015986080000, -47.20000,
,,,0.015986120000, -52.80000,
,,,0.015986160000, -56.00000,
,,,0.015986200000, -57.60000,
,,,0.015986240000, -55.20000,
,,,0.015986280000, -54.40000,
,,,0.015986320000, -54.40000,
,,,0.015986360000, -54.40000,
,,,0.015986400000, -52.80000,
,,,0.015986440000, -48.80000,
,,,0.015986480000, -47.20000,
,,,0.015986520000, -47.20000,
,,,0.015986560000, -49.60000,
,,,0.015986600000, -52.00000,
,,,0.015986640000, -56.00000,
,,,0.015986680000, -55.20000,
,,,0.015986720000, -54.40000,
,,,0.015986760000, -53.60000,
,,,0.015986800000, -53.60000,
,,,0.015986840000, -52.80000,
,,,0.015986880000, -52.00000,
,,,0.015986920000, -48.80000,
,,,0.015986960000, -48.00000,
,,,0.015987000000, -48.00000,
,,,0.015987040000, -52.00000,
,,,0.015987080000, -53.60000,
,,,0.015987120000, -54.40000,
,,,0.015987160000, -54.40000,
,,,0.015987200000, -54.40000,
,,,0.015987240000, -53.60000,
,,,0.015987280000, -52.80000,
,,,0.015987320000, -52.00000,
,,,0.015987360000, -51.20000,
,,,0.015987400000, -49.60000,
,,,0.015987440000, -48.80000,
,,,0.015987480000, -51.20000,
,,,0.015987520000, -52.80000,
,,,0.015987560000, -54.40000,
,,,0.015987600000, -54.40000,
,,,0.015987640000, -53.60000,
,,,0.015987680000, -52.80000,
,,,0.015987720000, -52.80000,
,,,0.015987760000, -53.60000,
,,,0.015987800000, -52.80000,
,,,0.015987840000, -52.00000,
,,,0.015987880000, -50.40000,
,,,0.015987920000, -50.40000,
,,,0.015987960000, -51.20000,
,,,0.015988000000, -52.80000,
,,,0.015988040000, -53.60000,
,,,0.015988080000, -52.80000,
,,,0.015988120000, -52.80000,
,,,0.015988160000, -52.00000,
,,,0.015988200000, -52.80000,
,,,0.015988240000, -52.00000,
,,,0.015988280000, -52.80000,
,,,0.015988320000, -51.20000,
,,,0.015988360000, -51.20000,
,,,0.015988400000, -51.20000,
,,,0.015988440000, -51.20000,
,,,0.015988480000, -52.80000,
,,,0.015988520000, -52.80000,
,,,0.015988560000, -52.80000,
,,,0.015988600000, -52.80000,
,,,0.015988640000, -52.80000,
,,,0.015988680000, -52.00000,
,,,0.015988720000, -52.80000,
,,,0.015988760000, -51.20000,
,,,0.015988800000, -52.00000,
,,,0.015988840000, -51.20000,
,,,0.015988880000, -51.20000,
,,,0.015988920000, -52.80000,
,,,0.015988960000, -52.80000,
,,,0.015989000000, -52.80000,
,,,0.015989040000, -52.00000,
,,,0.015989080000, -52.00000,
,,,0.015989120000, -53.60000,
,,,0.015989160000, -52.00000,
,,,0.015989200000, -52.00000,
,,,0.015989240000, -50.40000,
,,,0.015989280000, -51.20000,
,,,0.015989320000, -51.20000,
,,,0.015989360000, -52.00000,
,,,0.015989400000, -52.00000,
,,,0.015989440000, -52.00000,
,,,0.015989480000, -52.80000,
,,,0.015989520000, -52.80000,
,,,0.015989560000, -52.00000,
,,,0.015989600000, -52.80000,
,,,0.015989640000, -52.80000,
,,,0.015989680000, -52.80000,
,,,0.015989720000, -52.00000,
,,,0.015989760000, -51.20000,
,,,0.015989800000, -51.20000,
,,,0.015989840000, -52.00000,
,,,0.015989880000, -52.00000,
,,,0.015989920000, -52.80000,
,,,0.015989960000, -52.00000,
,,,0.015990000000, -52.00000,
,,,0.015990040000, -52.80000,
,,,0.015990080000, -52.00000,
,,,0.015990120000, -52.00000,
,,,0.015990160000, -52.00000,
,,,0.015990200000, -51.20000,
,,,0.015990240000, -52.00000,
,,,0.015990280000, -52.00000,
,,,0.015990320000, -52.00000,
,,,0.015990360000, -52.00000,
,,,0.015990400000, -52.80000,
,,,0.015990440000, -51.20000,
,,,0.015990480000, -52.00000,
,,,0.015990520000, -52.80000,
,,,0.015990560000, -51.20000,
,,,0.015990600000, -52.00000,
,,,0.015990640000, -51.20000,
,,,0.015990680000, -52.00000,
,,,0.015990720000, -52.80000,
,,,0.015990760000, -52.80000,
,,,0.015990800000, -52.80000,
,,,0.015990840000, -52.00000,
,,,0.015990880000, -52.00000,
,,,0.015990920000, -52.00000,
,,,0.015990960000, -52.00000,
,,,0.015991000000, -52.00000,
,,,0.015991040000, -52.00000,
,,,0.015991080000, -52.00000,
,,,0.015991120000, -52.00000,
,,,0.015991160000, -52.00000,
,,,0.015991200000, -52.00000,
,,,0.015991240000, -52.00000,
,,,0.015991280000, -52.80000,
,,,0.015991320000, -52.00000,
,,,0.015991360000, -52.80000,
,,,0.015991400000, -51.20000,
,,,0.015991440000, -52.00000,
,,,0.015991480000, -52.80000,
,,,0.015991520000, -52.80000,
,,,0.015991560000, -52.00000,
,,,0.015991600000, -52.00000,
,,,0.015991640000, -52.00000,
,,,0.015991680000, -52.00000,
,,,0.015991720000, -51.20000,
,,,0.015991760000, -52.80000,
,,,0.015991800000, -52.80000,
,,,0.015991840000, -52.00000,
,,,0.015991880000, -52.80000,
,,,0.015991920000, -51.20000,
,,,0.015991960000, -52.00000,
,,,0.015992000000, -52.80000,
,,,0.015992040000, -52.80000,
,,,0.015992080000, -51.20000,
,,,0.015992120000, -50.40000,
,,,0.015992160000, -52.80000,
,,,0.015992200000, -52.00000,
,,,0.015992240000, -51.20000,
,,,0.015992280000, -52.80000,
,,,0.015992320000, -52.00000,
,,,0.015992360000, -52.80000,
,,,0.015992400000, -52.00000,
,,,0.015992440000, -52.00000,
,,,0.015992480000, -52.00000,
,,,0.015992520000, -52.80000,
,,,0.015992560000, -52.00000,
,,,0.015992600000, -52.00000,
,,,0.015992640000, -51.20000,
,,,0.015992680000, -52.00000,
,,,0.015992720000, -52.00000,
,,,0.015992760000, -52.00000,
,,,0.015992800000, -52.00000,
,,,0.015992840000, -52.80000,
,,,0.015992880000, -52.00000,
,,,0.015992920000, -52.00000,
,,,0.015992960000, -52.80000,
,,,0.015993000000, -52.00000,
,,,0.015993040000, -51.20000,
,,,0.015993080000, -52.00000,
,,,0.015993120000, -52.00000,
,,,0.015993160000, -52.00000,
,,,0.015993200000, -51.20000,
,,,0.015993240000, -52.00000,
,,,0.015993280000, -52.00000,
,,,0.015993320000, -52.00000,
,,,0.015993360000, -51.20000,
,,,0.015993400000, -52.00000,
,,,0.015993440000, -51.20000,
,,,0.015993480000, -52.00000,
,,,0.015993520000, -52.80000,
,,,0.015993560000, -52.00000,
,,,0.015993600000, -52.00000,
,,,0.015993640000, -52.80000,
,,,0.015993680000, -52.00000,
,,,0.015993720000, -52.00000,
,,,0.015993760000, -52.00000,
,,,0.015993800000, -52.00000,
,,,0.015993840000, -52.00000,
,,,0.015993880000, -52.00000,
,,,0.015993920000, -52.00000,
,,,0.015993960000, -52.00000,
,,,0.015994000000, -51.20000,
,,,0.015994040000, -52.00000,
,,,0.015994080000, -52.80000,
,,,0.015994120000, -52.00000,
,,,0.015994160000, -52.00000,
,,,0.015994200000, -52.00000,
,,,0.015994240000, -52.00000,
,,,0.015994280000, -52.00000,
,,,0.015994320000, -52.00000,
,,,0.015994360000, -52.00000,
,,,0.015994400000, -52.00000,
,,,0.015994440000, -51.20000,
,,,0.015994480000, -52.00000,
,,,0.015994520000, -51.20000,
