Capturas y Ensayos/Capturas Osciloscopio/Pruebas Sistema Completo - Con Carga/ALL0033/F0033CH2.CSV

Record Length,2.500000e+03,,   0.015996200000,   1.61600,
Sample Interval,2.000000e-08,,   0.015996220000,   1.61600,
Trigger Point,-7.998100000000e+05,,   0.015996240000,   1.61600,
,,,   0.015996260000,   1.60800,
,,,   0.015996280000,   1.61600,
,,,   0.015996300000,   1.61600,
Source,CH2,,   0.015996320000,   1.61600,
Vertical Units,V,,   0.015996340000,   1.60800,
Vertical Scale,2.000000e-01,,   0.015996360000,   1.61600,
Vertical Offset,-1.656000e+00,,   0.015996380000,   1.61600,
Horizontal Units,s,,   0.015996400000,   1.61600,
Horizontal Scale,5.000000e-06,,   0.015996420000,   1.60800,
Pt Fmt,Y,,   0.015996440000,   1.61600,
Yzero,0.000000e+00,,   0.015996460000,   1.60000,
Probe Atten,1.000000e+00,,   0.015996480000,   1.60000,
Model Number,TBS1102B,,   0.015996500000,   1.60800,
Serial Number,C033696,,   0.015996520000,   1.60000,
Firmware Version,FV:v4.06,,   0.015996540000,   1.60000,
,,,0.015996560000,   1.60000,
,,,0.015996580000,   1.60000,
,,,0.015996600000,   1.60800,
,,,0.015996620000,   1.60800,
,,,0.015996640000,   1.60800,
,,,0.015996660000,   1.60000,
,,,0.015996680000,   1.60000,
,,,0.015996700000,   1.59200,
,,,0.015996720000,   1.60000,
,,,0.015996740000,   1.60000,
,,,0.015996760000,   1.60800,
,,,0.015996780000,   1.59200,
,,,0.015996800000,   1.59200,
,,,0.015996820000,   1.60800,
,,,0.015996840000,   1.60800,
,,,0.015996860000,   1.60000,
,,,0.015996880000,   1.60800,
,,,0.015996900000,   1.60000,
,,,0.015996920000,   1.59200,
,,,0.015996940000,   1.58400,
,,,0.015996960000,   1.59200,
,,,0.015996980000,   1.59200,
,,,0.015997000000,   1.59200,
,,,0.015997020000,   1.60000,
,,,0.015997040000,   1.59200,
,,,0.015997060000,   1.59200,
,,,0.015997080000,   1.60000,
,,,0.015997100000,   1.59200,
,,,0.015997120000,   1.59200,
,,,0.015997140000,   1.59200,
,,,0.015997160000,   1.59200,
,,,0.015997180000,   1.58400,
,,,0.015997200000,   1.58400,
,,,0.015997220000,   1.59200,
,,,0.015997240000,   1.58400,
,,,0.015997260000,   1.59200,
,,,0.015997280000,   1.59200,
,,,0.015997300000,   1.58400,
,,,0.015997320000,   1.58400,
,,,0.015997340000,   1.58400,
,,,0.015997360000,   1.58400,
,,,0.015997380000,   1.58400,
,,,0.015997400000,   1.58400,
,,,0.015997420000,   1.58400,
,,,0.015997440000,   1.57600,
,,,0.015997460000,   1.58400,
,,,0.015997480000,   1.58400,
,,,0.015997500000,   1.58400,
,,,0.015997520000,   1.57600,
,,,0.015997540000,   1.58400,
,,,0.015997560000,   1.58400,
,,,0.015997580000,   1.59200,
,,,0.015997600000,   1.58400,
,,,0.015997620000,   1.57600,
,,,0.015997640000,   1.58400,
,,,0.015997660000,   1.58400,
,,,0.015997680000,   1.58400,
,,,0.015997700000,   1.57600,
,,,0.015997720000,   1.57600,
,,,0.015997740000,   1.57600,
,,,0.015997760000,   1.56800,
,,,0.015997780000,   1.57600,
,,,0.015997800000,   1.57600,
,,,0.015997820000,   1.57600,
,,,0.015997840000,   1.57600,
,,,0.015997860000,   1.57600,
,,,0.015997880000,   1.57600,
,,,0.015997900000,   1.57600,
,,,0.015997920000,   1.56800,
,,,0.015997940000,   1.57600,
,,,0.015997960000,   1.56800,
,,,0.015997980000,   1.56800,
,,,0.015998000000,   1.57600,
,,,0.015998020000,   1.56000,
,,,0.015998040000,   1.56800,
,,,0.015998060000,   1.56800,
,,,0.015998080000,   1.56800,
,,,0.015998100000,   1.56800,
,,,0.015998120000,   1.56000,
,,,0.015998140000,   1.56800,
,,,0.015998160000,   1.56800,
,,,0.015998180000,   1.56000,
,,,0.015998200000,   1.56000,
,,,0.015998220000,   1.56800,
,,,0.015998240000,   1.56000,
,,,0.015998260000,   1.56000,
,,,0.015998280000,   1.56000,
,,,0.015998300000,   1.56000,
,,,0.015998320000,   1.56800,
,,,0.015998340000,   1.56800,
,,,0.015998360000,   1.56000,
,,,0.015998380000,   1.56000,
,,,0.015998400000,   1.56000,
,,,0.015998420000,   1.56000,
,,,0.015998440000,   1.56000,
,,,0.015998460000,   1.56000,
,,,0.015998480000,   1.55200,
,,,0.015998500000,   1.56800,
,,,0.015998520000,   1.55200,
,,,0.015998540000,   1.55200,
,,,0.015998560000,   1.56000,
,,,0.015998580000,   1.55200,
,,,0.015998600000,   1.55200,
,,,0.015998620000,   1.55200,
,,,0.015998640000,   1.55200,
,,,0.015998660000,   1.55200,
,,,0.015998680000,   1.55200,
,,,0.015998700000,   1.55200,
,,,0.015998720000,   1.55200,
,,,0.015998740000,   1.55200,
,,,0.015998760000,   1.54400,
,,,0.015998780000,   1.55200,
,,,0.015998800000,   1.54400,
,,,0.015998820000,   1.53600,
,,,0.015998840000,   1.55200,
,,,0.015998860000,   1.54400,
,,,0.015998880000,   1.55200,
,,,0.015998900000,   1.54400,
,,,0.015998920000,   1.55200,
,,,0.015998940000,   1.54400,
,,,0.015998960000,   1.54400,
,,,0.015998980000,   1.54400,
,,,0.015999000000,   1.53600,
,,,0.015999020000,   1.55200,
,,,0.015999040000,   1.54400,
,,,0.015999060000,   1.54400,
,,,0.015999080000,   1.53600,
,,,0.015999100000,   1.53600,
,,,0.015999120000,   1.54400,
,,,0.015999140000,   1.54400,
,,,0.015999160000,   1.54400,
,,,0.015999180000,   1.54400,
,,,0.015999200000,   1.54400,
,,,0.015999220000,   1.53600,
,,,0.015999240000,   1.53600,
,,,0.015999260000,   1.53600,
,,,0.015999280000,   1.53600,
,,,0.015999300000,   1.52800,
,,,0.015999320000,   1.53600,
,,,0.015999340000,   1.53600,
,,,0.015999360000,   1.53600,
,,,0.015999380000,   1.53600,
,,,0.015999400000,   1.53600,
,,,0.015999420000,   1.53600,
,,,0.015999440000,   1.53600,
,,,0.015999460000,   1.52800,
,,,0.015999480000,   1.53600,
,,,0.015999500000,   1.52800,
,,,0.015999520000,   1.53600,
,,,0.015999540000,   1.52800,
,,,0.015999560000,   1.54400,
,,,0.015999580000,   1.52800,
,,,0.015999600000,   1.52800,
,,,0.015999620000,   1.53600,
,,,0.015999640000,   1.52800,
,,,0.015999660000,   1.52800,
,,,0.015999680000,   1.52800,
,,,0.015999700000,   1.53600,
,,,0.015999720000,   1.52800,
,,,0.015999740000,   1.52000,
,,,0.015999760000,   1.52800,
,,,0.015999780000,   1.52000,
,,,0.015999800000,   1.52800,
,,,0.015999820000,   1.51200,
,,,0.015999840000,   1.52800,
,,,0.015999860000,   1.52800,
,,,0.015999880000,   1.52000,
,,,0.015999900000,   1.52000,
,,,0.015999920000,   1.52800,
,,,0.015999940000,   1.52800,
,,,0.015999960000,   1.52000,
,,,0.015999980000,   1.52800,
,,,0.016000000000,   1.52000,
,,,0.016000020000,   1.52000,
,,,0.016000040000,   1.52000,
,,,0.016000060000,   1.52000,
,,,0.016000080000,   1.51200,
,,,0.016000100000,   1.52000,
,,,0.016000120000,   1.52000,
,,,0.016000140000,   1.50400,
,,,0.016000160000,   1.51200,
,,,0.016000180000,   1.51200,
,,,0.016000200000,   1.50400,
,,,0.016000220000,   1.51200,
,,,0.016000240000,   1.51200,
,,,0.016000260000,   1.51200,
,,,0.016000280000,   1.51200,
,,,0.016000300000,   1.51200,
,,,0.016000320000,   1.52000,
,,,0.016000340000,   1.51200,
,,,0.016000360000,   1.50400,
,,,0.016000380000,   1.50400,
,,,0.016000400000,   1.50400,
,,,0.016000420000,   1.50400,
,,,0.016000440000,   1.50400,
,,,0.016000460000,   1.50400,
,,,0.016000480000,   1.50400,
,,,0.016000500000,   1.50400,
,,,0.016000520000,   1.49600,
,,,0.016000540000,   1.50400,
,,,0.016000560000,   1.51200,
,,,0.016000580000,   1.50400,
,,,0.016000600000,   1.50400,
,,,0.016000620000,   1.50400,
,,,0.016000640000,   1.50400,
,,,0.016000660000,   1.49600,
,,,0.016000680000,   1.50400,
,,,0.016000700000,   1.49600,
,,,0.016000720000,   1.50400,
,,,0.016000740000,   1.50400,
,,,0.016000760000,   1.51200,
,,,0.016000780000,   1.50400,
,,,0.016000800000,   1.50400,
,,,0.016000820000,   1.50400,
,,,0.016000840000,   1.49600,
,,,0.016000860000,   1.51200,
,,,0.016000880000,   1.49600,
,,,0.016000900000,   1.49600,
,,,0.016000920000,   1.49600,
,,,0.016000940000,   1.50400,
,,,0.016000960000,   1.48800,
,,,0.016000980000,   1.50400,
,,,0.016001000000,   1.49600,
,,,0.016001020000,   1.49600,
,,,0.016001040000,   1.49600,
,,,0.016001060000,   1.49600,
,,,0.016001080000,   1.48800,
,,,0.016001100000,   1.50400,
,,,0.016001120000,   1.48800,
,,,0.016001140000,   1.50400,
,,,0.016001160000,   1.49600,
,,,0.016001180000,   1.49600,
,,,0.016001200000,   1.49600,
,,,0.016001220000,   1.48800,
,,,0.016001240000,   1.48800,
,,,0.016001260000,   1.49600,
,,,0.016001280000,   1.48800,
,,,0.016001300000,   1.48800,
,,,0.016001320000,   1.48800,
,,,0.016001340000,   1.48800,
,,,0.016001360000,   1.48800,
,,,0.016001380000,   1.48800,
,,,0.016001400000,   1.48800,
,,,0.016001420000,   1.48800,
,,,0.016001440000,   1.48000,
,,,0.016001460000,   1.48000,
,,,0.016001480000,   1.48000,
,,,0.016001500000,   1.48000,
,,,0.016001520000,   1.48800,
,,,0.016001540000,   1.48800,
,,,0.016001560000,   1.48000,
,,,0.016001580000,   1.48000,
,,,0.016001600000,   1.48800,
,,,0.016001620000,   1.48800,
,,,0.016001640000,   1.48000,
,,,0.016001660000,   1.48000,
,,,0.016001680000,   1.47200,
,,,0.016001700000,   1.48800,
,,,0.016001720000,   1.48000,
,,,0.016001740000,   1.48800,
,,,0.016001760000,   1.48000,
,,,0.016001780000,   1.48000,
,,,0.016001800000,   1.47200,
,,,0.016001820000,   1.48000,
,,,0.016001840000,   1.47200,
,,,0.016001860000,   1.47200,
,,,0.016001880000,   1.47200,
,,,0.016001900000,   1.48000,
,,,0.016001920000,   1.47200,
,,,0.016001940000,   1.47200,
,,,0.016001960000,   1.47200,
,,,0.016001980000,   1.46400,
,,,0.016002000000,   1.46400,
,,,0.016002020000,   1.47200,
,,,0.016002040000,   1.45600,
,,,0.016002060000,   1.46400,
,,,0.016002080000,   1.46400,
,,,0.016002100000,   1.47200,
,,,0.016002120000,   1.47200,
,,,0.016002140000,   1.47200,
,,,0.016002160000,   1.46400,
,,,0.016002180000,   1.47200,
,,,0.016002200000,   1.47200,
,,,0.016002220000,   1.45600,
,,,0.016002240000,   1.46400,
,,,0.016002260000,   1.47200,
,,,0.016002280000,   1.45600,
,,,0.016002300000,   1.47200,
,,,0.016002320000,   1.47200,
,,,0.016002340000,   1.46400,
,,,0.016002360000,   1.47200,
,,,0.016002380000,   1.46400,
,,,0.016002400000,   1.47200,
,,,0.016002420000,   1.46400,
,,,0.016002440000,   1.45600,
,,,0.016002460000,   1.48800,
,,,0.016002480000,   1.45600,
,,,0.016002500000,   1.46400,
,,,0.016002520000,   1.47200,
,,,0.016002540000,   1.48000,
,,,0.016002560000,   1.46400,
,,,0.016002580000,   1.46400,
,,,0.016002600000,   1.46400,
,,,0.016002620000,   1.43200,
,,,0.016002640000,   1.46400,
,,,0.016002660000,   1.50400,
,,,0.016002680000,   1.50400,
,,,0.016002700000,   1.53600,
,,,0.016002720000,   1.56800,
,,,0.016002740000,   1.56800,
,,,0.016002760000,   1.56800,
,,,0.016002780000,   1.55200,
,,,0.016002800000,   1.53600,
,,,0.016002820000,   1.48800,
,,,0.016002840000,   1.47200,
,,,0.016002860000,   1.44800,
,,,0.016002880000,   1.41600,
,,,0.016002900000,   1.44800,
,,,0.016002920000,   1.47200,
,,,0.016002940000,   1.45600,
,,,0.016002960000,   1.48800,
,,,0.016002980000,   1.56800,
,,,0.016003000000,   1.56800,
,,,0.016003020000,   1.54400,
,,,0.016003040000,   1.56000,
,,,0.016003060000,   1.55200,
,,,0.016003080000,   1.49600,
,,,0.016003100000,   1.50400,
,,,0.016003120000,   1.48800,
,,,0.016003140000,   1.45600,
,,,0.016003160000,   1.47200,
,,,0.016003180000,   1.49600,
,,,0.016003200000,   1.49600,
,,,0.016003220000,   1.50400,
,,,0.016003240000,   1.52000,
,,,0.016003260000,   1.52000,
,,,0.016003280000,   1.52800,
,,,0.016003300000,   1.52800,
,,,0.016003320000,   1.52800,
,,,0.016003340000,   1.52800,
,,,0.016003360000,   1.51200,
,,,0.016003380000,   1.51200,
,,,0.016003400000,   1.52000,
,,,0.016003420000,   1.51200,
,,,0.016003440000,   1.50400,
,,,0.016003460000,   1.51200,
,,,0.016003480000,   1.50400,
,,,0.016003500000,   1.52800,
,,,0.016003520000,   1.51200,
,,,0.016003540000,   1.52800,
,,,0.016003560000,   1.52000,
,,,0.016003580000,   1.52000,
,,,0.016003600000,   1.52000,
,,,0.016003620000,   1.51200,
,,,0.016003640000,   1.51200,
,,,0.016003660000,   1.50400,
,,,0.016003680000,   1.51200,
,,,0.016003700000,   1.52000,
,,,0.016003720000,   1.52000,
,,,0.016003740000,   1.53600,
,,,0.016003760000,   1.54400,
,,,0.016003780000,   1.54400,
,,,0.016003800000,   1.54400,
,,,0.016003820000,   1.52800,
,,,0.016003840000,   1.51200,
,,,0.016003860000,   1.51200,
,,,0.016003880000,   1.50400,
,,,0.016003900000,   1.50400,
,,,0.016003920000,   1.50400,
,,,0.016003940000,   1.52000,
,,,0.016003960000,   1.52800,
,,,0.016003980000,   1.54400,
,,,0.016004000000,   1.54400,
,,,0.016004020000,   1.53600,
,,,0.016004040000,   1.53600,
,,,0.016004060000,   1.53600,
,,,0.016004080000,   1.53600,
,,,0.016004100000,   1.52800,
,,,0.016004120000,   1.52800,
,,,0.016004140000,   1.53600,
,,,0.016004160000,   1.52800,
,,,0.016004180000,   1.53600,
,,,0.016004200000,   1.53600,
,,,0.016004220000,   1.53600,
,,,0.016004240000,   1.52800,
,,,0.016004260000,   1.53600,
,,,0.016004280000,   1.54400,
,,,0.016004300000,   1.53600,
,,,0.016004320000,   1.52800,
,,,0.016004340000,   1.53600,
,,,0.016004360000,   1.53600,
,,,0.016004380000,   1.54400,
,,,0.016004400000,   1.53600,
,,,0.016004420000,   1.53600,
,,,0.016004440000,   1.54400,
,,,0.016004460000,   1.55200,
,,,0.016004480000,   1.54400,
,,,0.016004500000,   1.56000,
,,,0.016004520000,   1.54400,
,,,0.016004540000,   1.53600,
,,,0.016004560000,   1.53600,
,,,0.016004580000,   1.53600,
,,,0.016004600000,   1.54400,
,,,0.016004620000,   1.53600,
,,,0.016004640000,   1.53600,
,,,0.016004660000,   1.54400,
,,,0.016004680000,   1.56000,
,,,0.016004700000,   1.55200,
,,,0.016004720000,   1.54400,
,,,0.016004740000,   1.54400,
,,,0.016004760000,   1.54400,
,,,0.016004780000,   1.55200,
,,,0.016004800000,   1.54400,
,,,0.016004820000,   1.55200,
,,,0.016004840000,   1.53600,
,,,0.016004860000,   1.55200,
,,,0.016004880000,   1.54400,
,,,0.016004900000,   1.55200,
,,,0.016004920000,   1.56000,
,,,0.016004940000,   1.55200,
,,,0.016004960000,   1.55200,
,,,0.016004980000,   1.54400,
,,,0.016005000000,   1.55200,
,,,0.016005020000,   1.54400,
,,,0.016005040000,   1.55200,
,,,0.016005060000,   1.55200,
,,,0.016005080000,   1.55200,
,,,0.016005100000,   1.56000,
,,,0.016005120000,   1.56000,
,,,0.016005140000,   1.56800,
,,,0.016005160000,   1.55200,
,,,0.016005180000,   1.55200,
,,,0.016005200000,   1.56000,
,,,0.016005220000,   1.55200,
,,,0.016005240000,   1.55200,
,,,0.016005260000,   1.56800,
,,,0.016005280000,   1.56000,
,,,0.016005300000,   1.56000,
,,,0.016005320000,   1.56000,
,,,0.016005340000,   1.55200,
,,,0.016005360000,   1.55200,
,,,0.016005380000,   1.55200,
,,,0.016005400000,   1.56800,
,,,0.016005420000,   1.56000,
,,,0.016005440000,   1.56800,
,,,0.016005460000,   1.56800,
,,,0.016005480000,   1.56800,
,,,0.016005500000,   1.57600,
,,,0.016005520000,   1.57600,
,,,0.016005540000,   1.56800,
,,,0.016005560000,   1.56800,
,,,0.016005580000,   1.57600,
,,,0.016005600000,   1.56800,
,,,0.016005620000,   1.57600,
,,,0.016005640000,   1.56800,
,,,0.016005660000,   1.56000,
,,,0.016005680000,   1.56800,
,,,0.016005700000,   1.56800,
,,,0.016005720000,   1.56800,
,,,0.016005740000,   1.56800,
,,,0.016005760000,   1.57600,
,,,0.016005780000,   1.59200,
,,,0.016005800000,   1.57600,
,,,0.016005820000,   1.57600,
,,,0.016005840000,   1.57600,
,,,0.016005860000,   1.57600,
,,,0.016005880000,   1.58400,
,,,0.016005900000,   1.57600,
,,,0.016005920000,   1.57600,
,,,0.016005940000,   1.56800,
,,,0.016005960000,   1.57600,
,,,0.016005980000,   1.58400,
,,,0.016006000000,   1.58400,
,,,0.016006020000,   1.57600,
,,,0.016006040000,   1.57600,
,,,0.016006060000,   1.57600,
,,,0.016006080000,   1.58400,
,,,0.016006100000,   1.57600,
,,,0.016006120000,   1.57600,
,,,0.016006140000,   1.58400,
,,,0.016006160000,   1.57600,
,,,0.016006180000,   1.57600,
,,,0.016006200000,   1.59200,
,,,0.016006220000,   1.58400,
,,,0.016006240000,   1.58400,
,,,0.016006260000,   1.58400,
,,,0.016006280000,   1.58400,
,,,0.016006300000,   1.59200,
,,,0.016006320000,   1.59200,
,,,0.016006340000,   1.59200,
,,,0.016006360000,   1.58400,
,,,0.016006380000,   1.59200,
,,,0.016006400000,   1.59200,
,,,0.016006420000,   1.58400,
,,,0.016006440000,   1.58400,
,,,0.016006460000,   1.59200,
,,,0.016006480000,   1.60000,
,,,0.016006500000,   1.59200,
,,,0.016006520000,   1.59200,
,,,0.016006540000,   1.59200,
,,,0.016006560000,   1.59200,
,,,0.016006580000,   1.58400,
,,,0.016006600000,   1.58400,
,,,0.016006620000,   1.59200,
,,,0.016006640000,   1.59200,
,,,0.016006660000,   1.60000,
,,,0.016006680000,   1.59200,
,,,0.016006700000,   1.60000,
,,,0.016006720000,   1.60000,
,,,0.016006740000,   1.58400,
,,,0.016006760000,   1.60000,
,,,0.016006780000,   1.59200,
,,,0.016006800000,   1.60000,
,,,0.016006820000,   1.60000,
,,,0.016006840000,   1.60800,
,,,0.016006860000,   1.60800,
,,,0.016006880000,   1.60000,
,,,0.016006900000,   1.59200,
,,,0.016006920000,   1.60000,
,,,0.016006940000,   1.61600,
,,,0.016006960000,   1.60800,
,,,0.016006980000,   1.60800,
,,,0.016007000000,   1.60800,
,,,0.016007020000,   1.60800,
,,,0.016007040000,   1.60000,
,,,0.016007060000,   1.60000,
,,,0.016007080000,   1.60000,
,,,0.016007100000,   1.60000,
,,,0.016007120000,   1.60800,
,,,0.016007140000,   1.60800,
,,,0.016007160000,   1.60000,
,,,0.016007180000,   1.61600,
,,,0.016007200000,   1.60800,
,,,0.016007220000,   1.60800,
,,,0.016007240000,   1.60800,
,,,0.016007260000,   1.60800,
,,,0.016007280000,   1.60800,
,,,0.016007300000,   1.60800,
,,,0.016007320000,   1.61600,
,,,0.016007340000,   1.60800,
,,,0.016007360000,   1.60800,
,,,0.016007380000,   1.60800,
,,,0.016007400000,   1.60800,
,,,0.016007420000,   1.60800,
,,,0.016007440000,   1.62400,
,,,0.016007460000,   1.61600,
,,,0.016007480000,   1.61600,
,,,0.016007500000,   1.61600,
,,,0.016007520000,   1.61600,
,,,0.016007540000,   1.61600,
,,,0.016007560000,   1.62400,
,,,0.016007580000,   1.62400,
,,,0.016007600000,   1.62400,
,,,0.016007620000,   1.63200,
,,,0.016007640000,   1.61600,
,,,0.016007660000,   1.62400,
,,,0.016007680000,   1.63200,
,,,0.016007700000,   1.63200,
,,,0.016007720000,   1.63200,
,,,0.016007740000,   1.62400,
,,,0.016007760000,   1.61600,
,,,0.016007780000,   1.62400,
,,,0.016007800000,   1.61600,
,,,0.016007820000,   1.62400,
,,,0.016007840000,   1.62400,
,,,0.016007860000,   1.63200,
,,,0.016007880000,   1.61600,
,,,0.016007900000,   1.63200,
,,,0.016007920000,   1.62400,
,,,0.016007940000,   1.62400,
,,,0.016007960000,   1.62400,
,,,0.016007980000,   1.63200,
,,,0.016008000000,   1.62400,
,,,0.016008020000,   1.63200,
,,,0.016008040000,   1.63200,
,,,0.016008060000,   1.63200,
,,,0.016008080000,   1.63200,
,,,0.016008100000,   1.63200,
,,,0.016008120000,   1.63200,
,,,0.016008140000,   1.63200,
,,,0.016008160000,   1.64000,
,,,0.016008180000,   1.63200,
,,,0.016008200000,   1.64000,
,,,0.016008220000,   1.64000,
,,,0.016008240000,   1.64000,
,,,0.016008260000,   1.63200,
,,,0.016008280000,   1.63200,
,,,0.016008300000,   1.63200,
,,,0.016008320000,   1.63200,
,,,0.016008340000,   1.63200,
,,,0.016008360000,   1.63200,
,,,0.016008380000,   1.63200,
,,,0.016008400000,   1.64000,
,,,0.016008420000,   1.64000,
,,,0.016008440000,   1.63200,
,,,0.016008460000,   1.64800,
,,,0.016008480000,   1.64000,
,,,0.016008500000,   1.64000,
,,,0.016008520000,   1.64000,
,,,0.016008540000,   1.64000,
,,,0.016008560000,   1.64000,
,,,0.016008580000,   1.64000,
,,,0.016008600000,   1.64000,
,,,0.016008620000,   1.64800,
,,,0.016008640000,   1.64800,
,,,0.016008660000,   1.64000,
,,,0.016008680000,   1.64800,
,,,0.016008700000,   1.64800,
,,,0.016008720000,   1.64000,
,,,0.016008740000,   1.64800,
,,,0.016008760000,   1.65600,
,,,0.016008780000,   1.64000,
,,,0.016008800000,   1.64000,
,,,0.016008820000,   1.64800,
,,,0.016008840000,   1.64000,
,,,0.016008860000,   1.64800,
,,,0.016008880000,   1.64800,
,,,0.016008900000,   1.65600,
,,,0.016008920000,   1.65600,
,,,0.016008940000,   1.65600,
,,,0.016008960000,   1.65600,
,,,0.016008980000,   1.65600,
,,,0.016009000000,   1.65600,
,,,0.016009020000,   1.65600,
,,,0.016009040000,   1.64800,
,,,0.016009060000,   1.65600,
,,,0.016009080000,   1.65600,
,,,0.016009100000,   1.65600,
,,,0.016009120000,   1.65600,
,,,0.016009140000,   1.65600,
,,,0.016009160000,   1.66400,
,,,0.016009180000,   1.66400,
,,,0.016009200000,   1.65600,
,,,0.016009220000,   1.65600,
,,,0.016009240000,   1.66400,
,,,0.016009260000,   1.65600,
